[
  {
    "id": "c47d70f2-e104-4cfe-96da-01b6f3e1348f",
    "data": [
      {
        "text": "Darmstadt",
        "alias": "geoCity",
        "meta": "@sys.geo-city",
        "userDefined": false
      }
    ],
    "isTemplate": false,
    "count": 0
  },
  {
    "id": "4f111767-9ae0-4fce-9ba7-2d6b06071efd",
    "data": [
      {
        "text": "64291",
        "alias": "zipCode",
        "meta": "@sys.zip-code",
        "userDefined": true
      }
    ],
    "isTemplate": false,
    "count": 0
  },
  {
    "id": "b20c92f1-5a6b-43d8-8452-c9bb8cd44d72",
    "data": [
      {
        "text": "Ettesterstraße 3",
        "alias": "address",
        "meta": "@sys.address",
        "userDefined": true
      }
    ],
    "isTemplate": false,
    "count": 0
  },
  {
    "id": "122d7dd5-ccb6-43ce-a0e8-845f487e0485",
    "data": [
      {
        "text": "Kunz",
        "alias": "lastName",
        "meta": "@LastName",
        "userDefined": false
      }
    ],
    "isTemplate": false,
    "count": 0
  },
  {
    "id": "0c834377-6d87-43bf-89cb-555c84a2713a",
    "data": [
      {
        "text": "Christian",
        "alias": "givenName",
        "meta": "@GivenName",
        "userDefined": false
      }
    ],
    "isTemplate": false,
    "count": 0
  },
  {
    "id": "841a48aa-ff93-4cf2-a2c3-896c34d6196e",
    "data": [
      {
        "text": "Lisa",
        "alias": "givenName",
        "meta": "@GivenName",
        "userDefined": true
      },
      {
        "text": " ",
        "userDefined": false
      },
      {
        "text": "Baudisch",
        "alias": "lastName",
        "meta": "@LastName",
        "userDefined": true
      }
    ],
    "isTemplate": false,
    "count": 0,
    "updated": 1550391295
  },
  {
    "id": "b1eb93d2-b2fe-4e0c-ac7f-6b16d2974f09",
    "data": [
      {
        "text": "Christian",
        "alias": "givenName",
        "meta": "@GivenName",
        "userDefined": true
      },
      {
        "text": " ",
        "userDefined": false
      },
      {
        "text": "Kunz",
        "alias": "lastName",
        "meta": "@LastName",
        "userDefined": true
      }
    ],
    "isTemplate": false,
    "count": 0,
    "updated": 1550391295
  },
  {
    "id": "939de465-f27b-4323-a7a6-291b51b2e333",
    "data": [
      {
        "text": "christian.kunz@outlook.de",
        "alias": "email",
        "meta": "@sys.email",
        "userDefined": true
      }
    ],
    "isTemplate": false,
    "count": 0,
    "updated": 1549807743
  },
  {
    "id": "ed1d1c47-311a-4105-a57b-5b556fa94852",
    "data": [
      {
        "text": "Ich heiße ",
        "userDefined": false
      },
      {
        "text": "Christian",
        "alias": "givenName",
        "meta": "@GivenName",
        "userDefined": true
      },
      {
        "text": " ",
        "userDefined": false
      },
      {
        "text": "Kunz",
        "alias": "lastName",
        "meta": "@LastName",
        "userDefined": true
      },
      {
        "text": " und Wohne in der ",
        "userDefined": false
      },
      {
        "text": "Ettesterstraße 3",
        "alias": "address",
        "meta": "@sys.address",
        "userDefined": true
      },
      {
        "text": ", ",
        "userDefined": false
      },
      {
        "text": "64291",
        "alias": "zipCode",
        "meta": "@sys.zip-code",
        "userDefined": true
      },
      {
        "text": " ",
        "userDefined": false
      },
      {
        "text": "Darmstadt",
        "alias": "geoCity",
        "meta": "@sys.geo-city",
        "userDefined": false
      }
    ],
    "isTemplate": false,
    "count": 0,
    "updated": 1550391295
  }
]