[
  {
    "id": "ef297502-cb71-4a99-bdb5-9846942a266c",
    "data": [
      {
        "text": "Ich möchte ",
        "userDefined": false
      },
      {
        "text": "einen",
        "meta": "@sys.ignore",
        "userDefined": false
      },
      {
        "text": " Mac",
        "userDefined": false
      }
    ],
    "isTemplate": false,
    "count": 0
  },
  {
    "id": "05abc879-e255-48e1-b580-784839fc7173",
    "data": [
      {
        "text": "Ich möchte ",
        "userDefined": false
      },
      {
        "text": "gerne",
        "meta": "@sys.ignore",
        "userDefined": false
      },
      {
        "text": " ",
        "userDefined": false
      },
      {
        "text": "einen",
        "meta": "@sys.ignore",
        "userDefined": false
      },
      {
        "text": " Mac ",
        "userDefined": false
      },
      {
        "text": "kaufen",
        "meta": "@sys.ignore",
        "userDefined": false
      }
    ],
    "isTemplate": false,
    "count": 0
  },
  {
    "id": "ed280dbc-48da-479c-9a70-b7711e23183a",
    "data": [
      {
        "text": "Ich möchte ",
        "userDefined": false
      },
      {
        "text": "einen",
        "meta": "@sys.ignore",
        "userDefined": false
      },
      {
        "text": " Mac ",
        "userDefined": false
      },
      {
        "text": "kaufen",
        "meta": "@sys.ignore",
        "userDefined": false
      }
    ],
    "isTemplate": false,
    "count": 0
  },
  {
    "id": "ee07ad62-a77f-4621-9e86-6b8f6723be50",
    "data": [
      {
        "text": "mac#",
        "userDefined": false
      }
    ],
    "isTemplate": false,
    "count": 0,
    "updated": 0
  },
  {
    "id": "9a02ebc0-2f7f-4171-9514-f81046872bd4",
    "data": [
      {
        "text": "mac",
        "userDefined": false
      }
    ],
    "isTemplate": false,
    "count": 1,
    "updated": 0
  },
  {
    "id": "65e0690a-8027-4859-8934-ac5495b5c613",
    "data": [
      {
        "text": "macs",
        "userDefined": false
      }
    ],
    "isTemplate": false,
    "count": 0,
    "updated": 0
  },
  {
    "id": "0a34724e-949f-4ea2-8ead-7687d436ea5d",
    "data": [
      {
        "text": "iMac",
        "alias": "DeviceName",
        "meta": "@DeviceName",
        "userDefined": false
      }
    ],
    "isTemplate": false,
    "count": 0,
    "updated": 0
  },
  {
    "id": "7b32a5df-c783-422a-aca7-01df225980fc",
    "data": [
      {
        "text": "Ich möchte gerne ",
        "userDefined": false
      },
      {
        "text": "ein",
        "meta": "@sys.ignore",
        "userDefined": false
      },
      {
        "text": " ",
        "userDefined": false
      },
      {
        "text": "MacBook",
        "alias": "DeviceType",
        "meta": "@DeviceType",
        "userDefined": false
      },
      {
        "text": " kaufen",
        "userDefined": false
      }
    ],
    "isTemplate": false,
    "count": 2,
    "updated": 1549642483
  },
  {
    "id": "6d774582-c044-4e88-8462-88463c7d003f",
    "data": [
      {
        "text": "Ich möchte ein ",
        "userDefined": false
      },
      {
        "text": "MacBook",
        "alias": "DeviceType",
        "meta": "@DeviceType",
        "userDefined": false
      },
      {
        "text": " kaufen",
        "userDefined": false
      }
    ],
    "isTemplate": false,
    "count": 0,
    "updated": 0
  },
  {
    "id": "0f453457-5b11-48f4-92b0-154f898ad1ed",
    "data": [
      {
        "text": "Ich suche nach einem ",
        "userDefined": false
      },
      {
        "text": "MacBook",
        "alias": "DeviceType",
        "meta": "@DeviceType",
        "userDefined": false
      }
    ],
    "isTemplate": false,
    "count": 0,
    "updated": 0
  },
  {
    "id": "a4ef05e9-87b9-42e2-8a35-1e16e12e9b6e",
    "data": [
      {
        "text": "Ich würde gerne ein ",
        "userDefined": false
      },
      {
        "text": "MacBook",
        "alias": "DeviceType",
        "meta": "@DeviceType",
        "userDefined": false
      },
      {
        "text": " erwerben",
        "userDefined": false
      }
    ],
    "isTemplate": false,
    "count": 0,
    "updated": 0
  },
  {
    "id": "c47e7f25-fba1-4d9d-98bf-29e818bb9b13",
    "data": [
      {
        "text": "Verkaufst du ",
        "userDefined": false
      },
      {
        "text": "MacBooks",
        "alias": "DeviceType",
        "meta": "@DeviceType",
        "userDefined": false
      },
      {
        "text": "?",
        "userDefined": false
      }
    ],
    "isTemplate": false,
    "count": 0,
    "updated": 0
  },
  {
    "id": "1d03b141-f9ca-4055-a11b-3224bae00e64",
    "data": [
      {
        "text": "Ich brauche ein neuen ",
        "userDefined": false
      },
      {
        "text": "MacBook",
        "alias": "DeviceType",
        "meta": "@DeviceType",
        "userDefined": false
      }
    ],
    "isTemplate": false,
    "count": 0,
    "updated": 0
  },
  {
    "id": "2fd06d2a-b564-4bc1-a211-441980d77ee6",
    "data": [
      {
        "text": "ich brauche ein ",
        "userDefined": false
      },
      {
        "text": "MacBook",
        "alias": "DeviceType",
        "meta": "@DeviceType",
        "userDefined": false
      }
    ],
    "isTemplate": false,
    "count": 0,
    "updated": 0
  },
  {
    "id": "de3685cb-44c9-4f35-b78b-b9474e816dfb",
    "data": [
      {
        "text": "Kannst du mir ein ",
        "userDefined": false
      },
      {
        "text": "MacBook",
        "alias": "DeviceType",
        "meta": "@DeviceType",
        "userDefined": false
      },
      {
        "text": " verkaufen",
        "userDefined": false
      }
    ],
    "isTemplate": false,
    "count": 0,
    "updated": 0
  },
  {
    "id": "454f38d1-acd9-4b3e-8967-f4befee74a08",
    "data": [
      {
        "text": "MacBook",
        "alias": "DeviceType",
        "meta": "@DeviceType",
        "userDefined": false
      },
      {
        "text": " kaufen",
        "userDefined": false
      }
    ],
    "isTemplate": false,
    "count": 0,
    "updated": 0
  },
  {
    "id": "d93f76c5-6692-4c9e-a9ac-979d76840de5",
    "data": [
      {
        "text": "Hi, ich möchte gerne ein ",
        "userDefined": false
      },
      {
        "text": "MacBook",
        "alias": "DeviceType",
        "meta": "@DeviceType",
        "userDefined": false
      },
      {
        "text": " kaufen",
        "userDefined": false
      }
    ],
    "isTemplate": false,
    "count": 0,
    "updated": 0
  },
  {
    "id": "a7fa9e38-9d73-4296-b772-65557392a421",
    "data": [
      {
        "text": "Hallo ich möchte gerne ein ",
        "userDefined": false
      },
      {
        "text": "MacBook",
        "alias": "DeviceType",
        "meta": "@DeviceType",
        "userDefined": false
      },
      {
        "text": " kaufen",
        "userDefined": false
      }
    ],
    "isTemplate": false,
    "count": 0,
    "updated": 0
  },
  {
    "id": "7c6440ea-ff79-45d0-b4af-8b7094cdac8d",
    "data": [
      {
        "text": "Ich will ein ",
        "userDefined": false
      },
      {
        "text": "MacBook",
        "alias": "DeviceType",
        "meta": "@DeviceType",
        "userDefined": false
      },
      {
        "text": " kaufen",
        "userDefined": false
      }
    ],
    "isTemplate": false,
    "count": 0,
    "updated": 0
  },
  {
    "id": "35206623-2ff0-46b6-9c70-343b6e7165cc",
    "data": [
      {
        "text": "ich will ein ",
        "userDefined": false
      },
      {
        "text": "MacBook",
        "alias": "DeviceType",
        "meta": "@DeviceType",
        "userDefined": false
      },
      {
        "text": " erwerben",
        "userDefined": false
      }
    ],
    "isTemplate": false,
    "count": 0,
    "updated": 0
  },
  {
    "id": "d63f6e5d-2a7a-4377-94fc-bd0aa50cf944",
    "data": [
      {
        "text": "Ich hätte gerne ein ",
        "userDefined": false
      },
      {
        "text": "MacBook",
        "alias": "DeviceType",
        "meta": "@DeviceType",
        "userDefined": false
      }
    ],
    "isTemplate": false,
    "count": 1,
    "updated": 0
  },
  {
    "id": "89323c4e-8ef6-4d6c-ad04-6ce656c2b523",
    "data": [
      {
        "text": "Welche ",
        "userDefined": false
      },
      {
        "text": "MacBooks",
        "alias": "DeviceType",
        "meta": "@DeviceType",
        "userDefined": false
      },
      {
        "text": " kann ich kaufen",
        "userDefined": false
      }
    ],
    "isTemplate": false,
    "count": 0,
    "updated": 0
  },
  {
    "id": "8d6cc675-2c0a-48f0-abe1-a6b9d5f0eeb3",
    "data": [
      {
        "text": "ich möchte ein ",
        "userDefined": false
      },
      {
        "text": "MacBook Air",
        "alias": "DeviceName",
        "meta": "@DeviceName",
        "userDefined": false
      },
      {
        "text": " kaufen",
        "userDefined": false
      }
    ],
    "isTemplate": false,
    "count": 0,
    "updated": 0
  },
  {
    "id": "fc87b37c-e978-4faa-8e23-a21c3d3e57b1",
    "data": [
      {
        "text": "ich möchte ein ",
        "userDefined": false
      },
      {
        "text": "MacBook",
        "alias": "DeviceType",
        "meta": "@DeviceType",
        "userDefined": false
      },
      {
        "text": " mit ",
        "userDefined": false
      },
      {
        "text": "128 GB",
        "alias": "DeviceCapacity",
        "meta": "@DeviceCapacity",
        "userDefined": false
      },
      {
        "text": " Speicherplatz",
        "userDefined": false
      }
    ],
    "isTemplate": false,
    "count": 0,
    "updated": 0
  },
  {
    "id": "0aca3a4a-cd74-4026-a2dd-de9cb95d2071",
    "data": [
      {
        "text": "ich möchte ein ",
        "userDefined": false
      },
      {
        "text": "MacBook Pro",
        "alias": "DeviceName",
        "meta": "@DeviceName",
        "userDefined": false
      },
      {
        "text": ".",
        "userDefined": false
      }
    ],
    "isTemplate": false,
    "count": 0,
    "updated": 0
  },
  {
    "id": "9344f477-b154-4505-820f-96a7f866524f",
    "data": [
      {
        "text": "Ich möchte einen ",
        "userDefined": false
      },
      {
        "text": "Laptop",
        "alias": "DeviceType",
        "meta": "@DeviceType",
        "userDefined": false
      },
      {
        "text": " kaufen",
        "userDefined": false
      }
    ],
    "isTemplate": false,
    "count": 0,
    "updated": 0
  },
  {
    "id": "c5f97fff-2333-45ac-a9f6-3e21a9983adc",
    "data": [
      {
        "text": "Ich suche nach einem ",
        "userDefined": false
      },
      {
        "text": "Laptop",
        "alias": "DeviceType",
        "meta": "@DeviceType",
        "userDefined": false
      }
    ],
    "isTemplate": false,
    "count": 0,
    "updated": 0
  },
  {
    "id": "51328c54-6fe2-4383-bf34-e944f2cafe8c",
    "data": [
      {
        "text": "Ich würde gerne einen ",
        "userDefined": false
      },
      {
        "text": "Laptop",
        "alias": "DeviceType",
        "meta": "@DeviceType",
        "userDefined": false
      },
      {
        "text": " erwerben",
        "userDefined": false
      }
    ],
    "isTemplate": false,
    "count": 0,
    "updated": 0
  },
  {
    "id": "19c8c3d7-aed5-4de3-9277-43e4cf63f9f2",
    "data": [
      {
        "text": "Verkaufst du ",
        "userDefined": false
      },
      {
        "text": "Laptops",
        "alias": "DeviceType",
        "meta": "@DeviceType",
        "userDefined": true
      },
      {
        "text": "?",
        "userDefined": false
      }
    ],
    "isTemplate": false,
    "count": 0,
    "updated": 0
  },
  {
    "id": "fac4b34e-35c5-456d-b4ab-079b1f7a06ba",
    "data": [
      {
        "text": "Ich brauche einen neuen ",
        "userDefined": false
      },
      {
        "text": "Laptop",
        "alias": "DeviceType",
        "meta": "@DeviceType",
        "userDefined": false
      }
    ],
    "isTemplate": false,
    "count": 0,
    "updated": 0
  },
  {
    "id": "ca4a158e-bb28-451c-a2f1-7269d98cf2cd",
    "data": [
      {
        "text": "ich brauche einen ",
        "userDefined": false
      },
      {
        "text": "Laptop",
        "alias": "DeviceType",
        "meta": "@DeviceType",
        "userDefined": false
      }
    ],
    "isTemplate": false,
    "count": 0,
    "updated": 0
  },
  {
    "id": "aab04767-e757-4e27-b860-650bfe89fdca",
    "data": [
      {
        "text": "Kannst du mir einen ",
        "userDefined": false
      },
      {
        "text": "Laptop",
        "alias": "DeviceType",
        "meta": "@DeviceType",
        "userDefined": false
      },
      {
        "text": " verkaufen",
        "userDefined": false
      }
    ],
    "isTemplate": false,
    "count": 0,
    "updated": 0
  },
  {
    "id": "0af858e8-0623-4d9f-b8b0-1e6a93475246",
    "data": [
      {
        "text": "Laptop",
        "alias": "DeviceType",
        "meta": "@DeviceType",
        "userDefined": false
      },
      {
        "text": " kaufen",
        "userDefined": false
      }
    ],
    "isTemplate": false,
    "count": 0,
    "updated": 0
  },
  {
    "id": "4f47f3e0-bad0-414d-b35f-bea1f6608b34",
    "data": [
      {
        "text": "Hi, ich möchte gerne einen ",
        "userDefined": false
      },
      {
        "text": "Laptop",
        "alias": "DeviceType",
        "meta": "@DeviceType",
        "userDefined": false
      },
      {
        "text": " kaufen",
        "userDefined": false
      }
    ],
    "isTemplate": false,
    "count": 0,
    "updated": 0
  },
  {
    "id": "03b48d2b-96fb-4ba6-b0e0-96e06b8a3e4b",
    "data": [
      {
        "text": "Hallo ich möchte gerne einen ",
        "userDefined": false
      },
      {
        "text": "Laptop",
        "alias": "DeviceType",
        "meta": "@DeviceType",
        "userDefined": false
      },
      {
        "text": " kaufen",
        "userDefined": false
      }
    ],
    "isTemplate": false,
    "count": 0,
    "updated": 0
  },
  {
    "id": "9889a571-6876-41df-903e-46e19778729a",
    "data": [
      {
        "text": "Ich will einen ",
        "userDefined": false
      },
      {
        "text": "Laptop",
        "alias": "DeviceType",
        "meta": "@DeviceType",
        "userDefined": false
      },
      {
        "text": " kaufen",
        "userDefined": false
      }
    ],
    "isTemplate": false,
    "count": 0,
    "updated": 0
  },
  {
    "id": "84961588-15e0-4eeb-ac34-18801fc0dc77",
    "data": [
      {
        "text": "Ich möchte gerne einen ",
        "userDefined": false
      },
      {
        "text": "Laptop",
        "alias": "DeviceType",
        "meta": "@DeviceType",
        "userDefined": false
      },
      {
        "text": " kaufen",
        "userDefined": false
      }
    ],
    "isTemplate": false,
    "count": 0,
    "updated": 0
  },
  {
    "id": "fdd1605f-411c-4830-a00a-a6a570111abe",
    "data": [
      {
        "text": "ich will einen ",
        "userDefined": false
      },
      {
        "text": "Laptop",
        "alias": "DeviceType",
        "meta": "@DeviceType",
        "userDefined": false
      },
      {
        "text": " erwerben",
        "userDefined": false
      }
    ],
    "isTemplate": false,
    "count": 0,
    "updated": 0
  },
  {
    "id": "36ebd29f-94ef-4b89-8ec8-81429c53e5e1",
    "data": [
      {
        "text": "Ich hätte gerne einen ",
        "userDefined": false
      },
      {
        "text": "Laptop",
        "alias": "DeviceType",
        "meta": "@DeviceType",
        "userDefined": false
      }
    ],
    "isTemplate": false,
    "count": 1,
    "updated": 0
  },
  {
    "id": "3edc13e0-c1f8-4a5b-b246-6da10a879164",
    "data": [
      {
        "text": "Welche Laptops kann ich kaufen",
        "userDefined": false
      }
    ],
    "isTemplate": false,
    "count": 0,
    "updated": 0
  },
  {
    "id": "ee10b869-23b1-46f4-948f-3b44f0410ff3",
    "data": [
      {
        "text": "ich möchte gerne einen ",
        "userDefined": false
      },
      {
        "text": "Laptop",
        "alias": "DeviceType",
        "meta": "@DeviceType",
        "userDefined": false
      },
      {
        "text": " kaufen",
        "userDefined": false
      }
    ],
    "isTemplate": false,
    "count": 0,
    "updated": 0
  },
  {
    "id": "eedccd09-5a76-4840-8734-bc80301c8f0e",
    "data": [
      {
        "text": "ich möchte einen ",
        "userDefined": false
      },
      {
        "text": "Laptop",
        "alias": "DeviceType",
        "meta": "@DeviceType",
        "userDefined": false
      },
      {
        "text": " kaufen",
        "userDefined": false
      }
    ],
    "isTemplate": false,
    "count": 0,
    "updated": 0
  },
  {
    "id": "a3b033df-6f14-402c-a89a-48c9fa57a044",
    "data": [
      {
        "text": "ich möchte ein ",
        "userDefined": false
      },
      {
        "text": "Laptop",
        "alias": "DeviceType",
        "meta": "@DeviceType",
        "userDefined": false
      },
      {
        "text": " mit ",
        "userDefined": false
      },
      {
        "text": "128 GB",
        "alias": "DeviceCapacity",
        "meta": "@DeviceCapacity",
        "userDefined": false
      },
      {
        "text": " Speicherplatz",
        "userDefined": false
      }
    ],
    "isTemplate": false,
    "count": 0,
    "updated": 0
  },
  {
    "id": "8d80acf4-9cb0-45be-9806-3d2ebf07c427",
    "data": [
      {
        "text": "ich möchte ein ",
        "userDefined": false
      },
      {
        "text": "Laptop",
        "alias": "DeviceType",
        "meta": "@DeviceType",
        "userDefined": false
      },
      {
        "text": ".",
        "userDefined": false
      }
    ],
    "isTemplate": false,
    "count": 0,
    "updated": 0
  },
  {
    "id": "9deb3edb-faf7-4f33-9bb6-b6d860ab6ef8",
    "data": [
      {
        "text": "Ich möchte einen Computer kaufen",
        "userDefined": false
      }
    ],
    "isTemplate": false,
    "count": 0,
    "updated": 0
  },
  {
    "id": "588d1b90-5075-497a-bc00-92933130e509",
    "data": [
      {
        "text": "Ich such nach einem Computer",
        "userDefined": false
      }
    ],
    "isTemplate": false,
    "count": 0,
    "updated": 0
  },
  {
    "id": "b512d36c-65ae-4bb0-b56e-b8da40314a12",
    "data": [
      {
        "text": "Ich suche nach einem Computer",
        "userDefined": false
      }
    ],
    "isTemplate": false,
    "count": 0,
    "updated": 1551103265
  },
  {
    "id": "5d5aa6ba-55d9-4cde-bdf4-6c60dda1dbe9",
    "data": [
      {
        "text": "Ich würde gerne einen Computer erwerben",
        "userDefined": false
      }
    ],
    "isTemplate": false,
    "count": 0,
    "updated": 0
  },
  {
    "id": "0b44639e-5fec-40f1-b59c-72b95b305776",
    "data": [
      {
        "text": "Verkaufst du Computer?",
        "userDefined": false
      }
    ],
    "isTemplate": false,
    "count": 0,
    "updated": 0
  },
  {
    "id": "87772e14-dbe9-48f8-89a5-1519e4e3ea7b",
    "data": [
      {
        "text": "Ich brauche einen neuen Computer",
        "userDefined": false
      }
    ],
    "isTemplate": false,
    "count": 0,
    "updated": 0
  },
  {
    "id": "7f6c08d0-b8f0-45ed-90d9-8399467b84e7",
    "data": [
      {
        "text": "ich brauche einen Computer",
        "userDefined": false
      }
    ],
    "isTemplate": false,
    "count": 0,
    "updated": 0
  },
  {
    "id": "786afe80-d754-48ac-8f63-591784757510",
    "data": [
      {
        "text": "Kannst du mir einen Computer verkaufen",
        "userDefined": false
      }
    ],
    "isTemplate": false,
    "count": 0,
    "updated": 0
  },
  {
    "id": "25a83bc4-1ab9-4aa9-9925-6070ba8e8f84",
    "data": [
      {
        "text": "Computer kaufen",
        "userDefined": false
      }
    ],
    "isTemplate": false,
    "count": 0,
    "updated": 0
  },
  {
    "id": "51664802-97c0-4549-8e6b-d580d031391f",
    "data": [
      {
        "text": "Hi, ich möchte gerne einen Computer kaufen",
        "userDefined": false
      }
    ],
    "isTemplate": false,
    "count": 0,
    "updated": 0
  },
  {
    "id": "65e541b2-54e8-47a5-925d-2c715633b005",
    "data": [
      {
        "text": "Ich möchte ",
        "userDefined": false
      },
      {
        "text": "einen",
        "meta": "@sys.ignore",
        "userDefined": false
      },
      {
        "text": " Computer",
        "userDefined": false
      }
    ],
    "isTemplate": false,
    "count": 1,
    "updated": 1549879154
  },
  {
    "id": "880c5119-208f-4758-93df-e31bf4382b99",
    "data": [
      {
        "text": "Hallo ich möchte gerne einen Computer kaufen",
        "userDefined": false
      }
    ],
    "isTemplate": false,
    "count": 0,
    "updated": 0
  },
  {
    "id": "ce8daa52-c079-4445-b705-788139d5feee",
    "data": [
      {
        "text": "Ich möchte gerne einen Computer kaufen",
        "userDefined": false
      }
    ],
    "isTemplate": false,
    "count": 0,
    "updated": 0
  },
  {
    "id": "63b40ca6-58c7-45ce-8cb6-004bb9e9e691",
    "data": [
      {
        "text": "Ich will ",
        "userDefined": false
      },
      {
        "text": "einen",
        "meta": "@sys.ignore",
        "userDefined": false
      },
      {
        "text": " Computer kaufen",
        "userDefined": false
      }
    ],
    "isTemplate": false,
    "count": 0,
    "updated": 0
  },
  {
    "id": "316b8bdc-2a9e-49f1-bc94-b36cf52a2582",
    "data": [
      {
        "text": "ich will ",
        "userDefined": false
      },
      {
        "text": "einen",
        "meta": "@sys.ignore",
        "userDefined": false
      },
      {
        "text": " Rechner erwerben",
        "userDefined": false
      }
    ],
    "isTemplate": false,
    "count": 0,
    "updated": 0
  },
  {
    "id": "8cf437d1-8cb7-4c6e-8adf-51f079345eee",
    "data": [
      {
        "text": "ich will ",
        "userDefined": false
      },
      {
        "text": "einen",
        "meta": "@sys.ignore",
        "userDefined": false
      },
      {
        "text": " Computer erwerben",
        "userDefined": false
      }
    ],
    "isTemplate": false,
    "count": 1,
    "updated": 0
  },
  {
    "id": "b9a9a8b2-7f5d-4a73-b389-8110204cd977",
    "data": [
      {
        "text": "Ich hätte gerne ",
        "userDefined": false
      },
      {
        "text": "einen",
        "meta": "@sys.ignore",
        "userDefined": false
      },
      {
        "text": " Computer",
        "userDefined": false
      }
    ],
    "isTemplate": false,
    "count": 1,
    "updated": 0
  },
  {
    "id": "a419f0a3-ea92-468f-9a33-a7f034203466",
    "data": [
      {
        "text": "Welche Computer kann ich kaufen",
        "userDefined": false
      }
    ],
    "isTemplate": false,
    "count": 0,
    "updated": 0
  },
  {
    "id": "d72fb39c-1067-401d-b997-783a4b4bfbed",
    "data": [
      {
        "text": "ich möchte ",
        "userDefined": false
      },
      {
        "text": "ein",
        "meta": "@sys.ignore",
        "userDefined": false
      },
      {
        "text": " Computer mit ",
        "userDefined": false
      },
      {
        "text": "128 GB",
        "alias": "DeviceCapacity",
        "meta": "@DeviceCapacity",
        "userDefined": false
      },
      {
        "text": " Speicherplatz",
        "userDefined": false
      }
    ],
    "isTemplate": false,
    "count": 0,
    "updated": 0
  },
  {
    "id": "59bf9f08-82bc-451a-9506-7f657b9f2261",
    "data": [
      {
        "text": "Ich möchte ",
        "userDefined": false
      },
      {
        "text": "einen",
        "meta": "@sys.ignore",
        "userDefined": false
      },
      {
        "text": " ",
        "userDefined": false
      },
      {
        "text": "All-in-One",
        "alias": "DeviceType",
        "meta": "@DeviceType",
        "userDefined": false
      },
      {
        "text": " kaufen",
        "userDefined": false
      }
    ],
    "isTemplate": false,
    "count": 0,
    "updated": 0
  },
  {
    "id": "6c61905e-4671-4249-98f8-6af73b57f12b",
    "data": [
      {
        "text": "Ich suche ",
        "userDefined": false
      },
      {
        "text": "nach einem",
        "meta": "@sys.ignore",
        "userDefined": false
      },
      {
        "text": " ",
        "userDefined": false
      },
      {
        "text": "All-in-One",
        "alias": "DeviceType",
        "meta": "@DeviceType",
        "userDefined": false
      }
    ],
    "isTemplate": false,
    "count": 0,
    "updated": 0
  },
  {
    "id": "8c77e9e8-4849-4786-b5b2-411b8a59433b",
    "data": [
      {
        "text": "Ich würde gerne ",
        "userDefined": false
      },
      {
        "text": "einen",
        "meta": "@sys.ignore",
        "userDefined": false
      },
      {
        "text": " ",
        "userDefined": false
      },
      {
        "text": "All-in-One",
        "alias": "DeviceType",
        "meta": "@DeviceType",
        "userDefined": false
      },
      {
        "text": " erwerben",
        "userDefined": false
      }
    ],
    "isTemplate": false,
    "count": 0,
    "updated": 0
  },
  {
    "id": "931c8ef1-ae2e-4bc6-8e9e-b87b9c06a147",
    "data": [
      {
        "text": "Verkaufst du ",
        "userDefined": false
      },
      {
        "text": "All-in-Ones",
        "alias": "DeviceType",
        "meta": "@DeviceType",
        "userDefined": true
      },
      {
        "text": "?",
        "userDefined": false
      }
    ],
    "isTemplate": false,
    "count": 0,
    "updated": 0
  },
  {
    "id": "7a4cfb97-c0fc-4892-b13f-236772517abf",
    "data": [
      {
        "text": "Ich brauche ",
        "userDefined": false
      },
      {
        "text": "einen",
        "meta": "@sys.ignore",
        "userDefined": false
      },
      {
        "text": " neuen ",
        "userDefined": false
      },
      {
        "text": "All-in-One",
        "alias": "DeviceType",
        "meta": "@DeviceType",
        "userDefined": false
      }
    ],
    "isTemplate": false,
    "count": 0,
    "updated": 0
  },
  {
    "id": "9f674bff-f793-434f-a619-e53e45315d4f",
    "data": [
      {
        "text": "ich brauche ",
        "userDefined": false
      },
      {
        "text": "einen",
        "meta": "@sys.ignore",
        "userDefined": false
      },
      {
        "text": " ",
        "userDefined": false
      },
      {
        "text": "All-in-One",
        "alias": "DeviceType",
        "meta": "@DeviceType",
        "userDefined": false
      }
    ],
    "isTemplate": false,
    "count": 0,
    "updated": 0
  },
  {
    "id": "d5cf8afc-f82f-43e0-9c24-a8e592e5e8a6",
    "data": [
      {
        "text": "Kannst du mir ",
        "userDefined": false
      },
      {
        "text": "einen",
        "meta": "@sys.ignore",
        "userDefined": false
      },
      {
        "text": " ",
        "userDefined": false
      },
      {
        "text": "All-in-One",
        "alias": "DeviceType",
        "meta": "@DeviceType",
        "userDefined": false
      },
      {
        "text": " verkaufen",
        "userDefined": false
      }
    ],
    "isTemplate": false,
    "count": 0,
    "updated": 0
  },
  {
    "id": "df7917fe-8b1d-4d96-8369-a3e3abfebb34",
    "data": [
      {
        "text": "All-in-One",
        "alias": "DeviceType",
        "meta": "@DeviceType",
        "userDefined": false
      },
      {
        "text": " kaufen",
        "userDefined": false
      }
    ],
    "isTemplate": false,
    "count": 0,
    "updated": 0
  },
  {
    "id": "782277a2-af93-44d7-a51d-504ca2e2d2f4",
    "data": [
      {
        "text": "Hi, ich möchte gerne ",
        "userDefined": false
      },
      {
        "text": "einen",
        "meta": "@sys.ignore",
        "userDefined": false
      },
      {
        "text": " ",
        "userDefined": false
      },
      {
        "text": "All-in-One",
        "alias": "DeviceType",
        "meta": "@DeviceType",
        "userDefined": false
      },
      {
        "text": " kaufen",
        "userDefined": false
      }
    ],
    "isTemplate": false,
    "count": 0,
    "updated": 0
  },
  {
    "id": "65aba1d4-6dad-4075-a39b-c2d6e2dba9bf",
    "data": [
      {
        "text": "Hallo ich möchte gerne ",
        "userDefined": false
      },
      {
        "text": "einen",
        "meta": "@sys.ignore",
        "userDefined": false
      },
      {
        "text": " ",
        "userDefined": false
      },
      {
        "text": "All-in-One",
        "alias": "DeviceType",
        "meta": "@DeviceType",
        "userDefined": false
      },
      {
        "text": " kaufen",
        "userDefined": false
      }
    ],
    "isTemplate": false,
    "count": 0,
    "updated": 0
  },
  {
    "id": "9937324a-ec20-4850-9f0f-3f2b6f0fe06e",
    "data": [
      {
        "text": "Ich will ",
        "userDefined": false
      },
      {
        "text": "einen",
        "meta": "@sys.ignore",
        "userDefined": false
      },
      {
        "text": " ",
        "userDefined": false
      },
      {
        "text": "All-in-One",
        "alias": "DeviceType",
        "meta": "@DeviceType",
        "userDefined": false
      },
      {
        "text": " kaufen",
        "userDefined": false
      }
    ],
    "isTemplate": false,
    "count": 0,
    "updated": 0
  },
  {
    "id": "82722790-4a02-4540-990f-c3e919500f46",
    "data": [
      {
        "text": "Ich möchte gerne ",
        "userDefined": false
      },
      {
        "text": "einen",
        "meta": "@sys.ignore",
        "userDefined": false
      },
      {
        "text": " ",
        "userDefined": false
      },
      {
        "text": "All-in-One",
        "alias": "DeviceType",
        "meta": "@DeviceType",
        "userDefined": false
      },
      {
        "text": " kaufen",
        "userDefined": false
      }
    ],
    "isTemplate": false,
    "count": 0,
    "updated": 0
  },
  {
    "id": "a26de599-68fc-4b66-aaab-47096c2e2bfd",
    "data": [
      {
        "text": "ich will ",
        "userDefined": false
      },
      {
        "text": "einen",
        "meta": "@sys.ignore",
        "userDefined": false
      },
      {
        "text": " ",
        "userDefined": false
      },
      {
        "text": "All-in-One",
        "alias": "DeviceType",
        "meta": "@DeviceType",
        "userDefined": false
      },
      {
        "text": " erwerben",
        "userDefined": false
      }
    ],
    "isTemplate": false,
    "count": 0,
    "updated": 0
  },
  {
    "id": "007427a6-1d97-4f5e-b36e-8ade59e9a7e5",
    "data": [
      {
        "text": "Ich hätte gerne ",
        "userDefined": false
      },
      {
        "text": "einen",
        "meta": "@sys.ignore",
        "userDefined": false
      },
      {
        "text": " ",
        "userDefined": false
      },
      {
        "text": "All-in-One",
        "alias": "DeviceType",
        "meta": "@DeviceType",
        "userDefined": false
      }
    ],
    "isTemplate": false,
    "count": 1,
    "updated": 0
  },
  {
    "id": "5fbe1d73-968a-4562-8ff9-e08b383088ac",
    "data": [
      {
        "text": "Welche ",
        "userDefined": false
      },
      {
        "text": "All-in-Ones",
        "alias": "DeviceType",
        "meta": "@DeviceType",
        "userDefined": true
      },
      {
        "text": " kann ich kaufen",
        "userDefined": false
      }
    ],
    "isTemplate": false,
    "count": 0,
    "updated": 0
  },
  {
    "id": "1bd74919-10fa-4aae-91c8-21a873597ee6",
    "data": [
      {
        "text": "ich möchte gerne ",
        "userDefined": false
      },
      {
        "text": "einen",
        "meta": "@sys.ignore",
        "userDefined": false
      },
      {
        "text": " ",
        "userDefined": false
      },
      {
        "text": "All-in-One",
        "alias": "DeviceType",
        "meta": "@DeviceType",
        "userDefined": false
      },
      {
        "text": " kaufen",
        "userDefined": false
      }
    ],
    "isTemplate": false,
    "count": 0,
    "updated": 0
  },
  {
    "id": "6597e547-a6f3-49aa-b478-000b9dd53948",
    "data": [
      {
        "text": "ich möchte ",
        "userDefined": false
      },
      {
        "text": "einen",
        "meta": "@sys.ignore",
        "userDefined": false
      },
      {
        "text": " ",
        "userDefined": false
      },
      {
        "text": "All-in-One",
        "alias": "DeviceType",
        "meta": "@DeviceType",
        "userDefined": false
      },
      {
        "text": " kaufen",
        "userDefined": false
      }
    ],
    "isTemplate": false,
    "count": 0,
    "updated": 0
  },
  {
    "id": "2cc99fa8-a2fe-4223-9939-e0122f5b50c9",
    "data": [
      {
        "text": "ich möchte ",
        "userDefined": false
      },
      {
        "text": "ein",
        "meta": "@sys.ignore",
        "userDefined": false
      },
      {
        "text": " ",
        "userDefined": false
      },
      {
        "text": "All-in-One",
        "alias": "DeviceType",
        "meta": "@DeviceType",
        "userDefined": false
      },
      {
        "text": " mit ",
        "userDefined": false
      },
      {
        "text": "128 GB",
        "alias": "DeviceCapacity",
        "meta": "@DeviceCapacity",
        "userDefined": false
      },
      {
        "text": " Speicherplatz",
        "userDefined": false
      }
    ],
    "isTemplate": false,
    "count": 0,
    "updated": 0
  },
  {
    "id": "a8552f4b-2257-4e91-9d27-dd325b5ee200",
    "data": [
      {
        "text": "ich möchte ",
        "userDefined": false
      },
      {
        "text": "ein",
        "meta": "@sys.ignore",
        "userDefined": false
      },
      {
        "text": " ",
        "userDefined": false
      },
      {
        "text": "All-in-One",
        "alias": "DeviceType",
        "meta": "@DeviceType",
        "userDefined": false
      },
      {
        "text": ".",
        "userDefined": false
      }
    ],
    "isTemplate": false,
    "count": 0,
    "updated": 0
  },
  {
    "id": "3b55b8ba-ead5-4ef8-9f6d-4c3ec9af2d38",
    "data": [
      {
        "text": "21,5 Zoll",
        "alias": "DeviceDisplaySize",
        "meta": "@DeviceDisplaySize",
        "userDefined": true
      }
    ],
    "isTemplate": false,
    "count": 0,
    "updated": 1549902014
  },
  {
    "id": "92517410-ef54-4af3-969a-859e5fe3261e",
    "data": [
      {
        "text": "21,5",
        "alias": "DeviceDisplaySize",
        "meta": "@DeviceDisplaySize",
        "userDefined": true
      }
    ],
    "isTemplate": false,
    "count": 0,
    "updated": 1549901476
  },
  {
    "id": "b10e2174-0aef-4742-a401-85f7b9199acf",
    "data": [
      {
        "text": "3,6 GHz",
        "alias": "DeviceProcessorGHZ",
        "meta": "@DeviceProcessorGHZ",
        "userDefined": true
      },
      {
        "text": " ",
        "userDefined": false
      },
      {
        "text": "Intel Core i7",
        "alias": "DeviceProcessorName",
        "meta": "@DeviceProcessorName",
        "userDefined": true
      },
      {
        "text": " Prozessor mit ",
        "userDefined": false
      },
      {
        "text": "4 Kernen",
        "alias": "DeviceProcessorCore",
        "meta": "@DeviceProcessorCore",
        "userDefined": true
      }
    ],
    "isTemplate": false,
    "count": 0,
    "updated": 1549901355
  },
  {
    "id": "47a7cc93-5f03-4b94-a7bc-709191aeaca4",
    "data": [
      {
        "text": "4,2 GHz",
        "alias": "DeviceProcessorGHZ",
        "meta": "@DeviceProcessorGHZ",
        "userDefined": true
      },
      {
        "text": " ",
        "userDefined": false
      },
      {
        "text": "Intel Core i7",
        "alias": "DeviceProcessorName",
        "meta": "@DeviceProcessorName",
        "userDefined": true
      },
      {
        "text": " Prozessor mit ",
        "userDefined": false
      },
      {
        "text": "4 Kernen",
        "alias": "DeviceProcessorCore",
        "meta": "@DeviceProcessorCore",
        "userDefined": true
      }
    ],
    "isTemplate": false,
    "count": 0,
    "updated": 1549901355
  },
  {
    "id": "4e70cf5f-fec2-4255-840e-bc856c0900ab",
    "data": [
      {
        "text": "3,8 GHz",
        "alias": "DeviceProcessorGHZ",
        "meta": "@DeviceProcessorGHZ",
        "userDefined": true
      },
      {
        "text": " ",
        "userDefined": false
      },
      {
        "text": "Intel Core i5",
        "alias": "DeviceProcessorName",
        "meta": "@DeviceProcessorName",
        "userDefined": true
      },
      {
        "text": " Prozessor mit ",
        "userDefined": false
      },
      {
        "text": "4 Kernen",
        "alias": "DeviceProcessorCore",
        "meta": "@DeviceProcessorCore",
        "userDefined": true
      }
    ],
    "isTemplate": false,
    "count": 0,
    "updated": 1549901355
  },
  {
    "id": "fed797fc-22f5-4f2d-bbb4-b7360d0100f4",
    "data": [
      {
        "text": "3,6 GHz",
        "alias": "DeviceProcessorGHZ",
        "meta": "@DeviceProcessorGHZ",
        "userDefined": true
      },
      {
        "text": " ",
        "userDefined": false
      },
      {
        "text": "Intel Core i3",
        "alias": "DeviceProcessorName",
        "meta": "@DeviceProcessorName",
        "userDefined": true
      },
      {
        "text": " Prozessor mit ",
        "userDefined": false
      },
      {
        "text": "4 Kernen",
        "alias": "DeviceProcessorCore",
        "meta": "@DeviceProcessorCore",
        "userDefined": true
      }
    ],
    "isTemplate": false,
    "count": 0,
    "updated": 1549901355
  },
  {
    "id": "4087a801-f0de-4eb7-9faa-f8e03f0eb029",
    "data": [
      {
        "text": "3,5 GHz",
        "alias": "DeviceProcessorGHZ",
        "meta": "@DeviceProcessorGHZ",
        "userDefined": true
      },
      {
        "text": " ",
        "userDefined": false
      },
      {
        "text": "Intel Xeon E5",
        "alias": "DeviceProcessorName",
        "meta": "@DeviceProcessorName",
        "userDefined": true
      },
      {
        "text": " Prozessor mit ",
        "userDefined": false
      },
      {
        "text": "6 Kernen",
        "alias": "DeviceProcessorCore",
        "meta": "@DeviceProcessorCore",
        "userDefined": true
      }
    ],
    "isTemplate": false,
    "count": 0,
    "updated": 1549901355
  },
  {
    "id": "6acd9a84-a5bd-4a55-a2c2-ad789678febc",
    "data": [
      {
        "text": "3,5 GHz",
        "alias": "DeviceProcessorGHZ",
        "meta": "@DeviceProcessorGHZ",
        "userDefined": true
      },
      {
        "text": " ",
        "userDefined": false
      },
      {
        "text": "Intel Core i5",
        "alias": "DeviceProcessorName",
        "meta": "@DeviceProcessorName",
        "userDefined": true
      },
      {
        "text": " Prozessor mit ",
        "userDefined": false
      },
      {
        "text": "4 Kernen",
        "alias": "DeviceProcessorCore",
        "meta": "@DeviceProcessorCore",
        "userDefined": true
      }
    ],
    "isTemplate": false,
    "count": 0,
    "updated": 1549901355
  },
  {
    "id": "84bbedf2-77cf-4013-95c6-b87526b4990b",
    "data": [
      {
        "text": "3,4 GHz",
        "alias": "DeviceProcessorGHZ",
        "meta": "@DeviceProcessorGHZ",
        "userDefined": true
      },
      {
        "text": " ",
        "userDefined": false
      },
      {
        "text": "Intel Core i5",
        "alias": "DeviceProcessorName",
        "meta": "@DeviceProcessorName",
        "userDefined": true
      },
      {
        "text": " Prozessor mit ",
        "userDefined": false
      },
      {
        "text": "4 Kernen",
        "alias": "DeviceProcessorCore",
        "meta": "@DeviceProcessorCore",
        "userDefined": true
      }
    ],
    "isTemplate": false,
    "count": 0,
    "updated": 1549901355
  },
  {
    "id": "7b6bd1ec-e80d-4934-82aa-66cf072b4a80",
    "data": [
      {
        "text": "3,2 GHz",
        "alias": "DeviceProcessorGHZ",
        "meta": "@DeviceProcessorGHZ",
        "userDefined": true
      },
      {
        "text": " ",
        "userDefined": false
      },
      {
        "text": "Intel Core i7",
        "alias": "DeviceProcessorName",
        "meta": "@DeviceProcessorName",
        "userDefined": true
      },
      {
        "text": " Prozessor mit ",
        "userDefined": false
      },
      {
        "text": "6 Kernen",
        "alias": "DeviceProcessorCore",
        "meta": "@DeviceProcessorCore",
        "userDefined": true
      }
    ],
    "isTemplate": false,
    "count": 0,
    "updated": 1549901355
  },
  {
    "id": "8abf25f8-e7f6-4af8-b28c-a4ffc35c3bb9",
    "data": [
      {
        "text": "3,2 GHz",
        "alias": "DeviceProcessorGHZ",
        "meta": "@DeviceProcessorGHZ",
        "userDefined": true
      },
      {
        "text": " ",
        "userDefined": false
      },
      {
        "text": "Intel Xeon W",
        "alias": "DeviceProcessorName",
        "meta": "@DeviceProcessorName",
        "userDefined": true
      },
      {
        "text": " Prozessor mit ",
        "userDefined": false
      },
      {
        "text": "8 Kernen",
        "alias": "DeviceProcessorCore",
        "meta": "@DeviceProcessorCore",
        "userDefined": true
      }
    ],
    "isTemplate": false,
    "count": 0,
    "updated": 1549901355
  },
  {
    "id": "81e412b1-bc44-4fd6-8676-a9958517aecd",
    "data": [
      {
        "text": "3,0 GHz",
        "alias": "DeviceProcessorGHZ",
        "meta": "@DeviceProcessorGHZ",
        "userDefined": true
      },
      {
        "text": " ",
        "userDefined": false
      },
      {
        "text": "Intel Xeon W",
        "alias": "DeviceProcessorName",
        "meta": "@DeviceProcessorName",
        "userDefined": true
      },
      {
        "text": " Prozessor mit ",
        "userDefined": false
      },
      {
        "text": "10 Kernen",
        "alias": "DeviceProcessorCore",
        "meta": "@DeviceProcessorCore",
        "userDefined": true
      }
    ],
    "isTemplate": false,
    "count": 0,
    "updated": 1549901355
  },
  {
    "id": "d4c379f5-7e81-4a2b-bd90-443f29c8a561",
    "data": [
      {
        "text": "3,0 GHz",
        "alias": "DeviceProcessorGHZ",
        "meta": "@DeviceProcessorGHZ",
        "userDefined": true
      },
      {
        "text": " ",
        "userDefined": false
      },
      {
        "text": "Intel Core i5",
        "alias": "DeviceProcessorName",
        "meta": "@DeviceProcessorName",
        "userDefined": true
      },
      {
        "text": " Prozessor mit ",
        "userDefined": false
      },
      {
        "text": "4 Kernen",
        "alias": "DeviceProcessorCore",
        "meta": "@DeviceProcessorCore",
        "userDefined": true
      }
    ],
    "isTemplate": false,
    "count": 0,
    "updated": 1549901355
  },
  {
    "id": "120fa232-ea3c-4980-9d65-fb4975e8f014",
    "data": [
      {
        "text": "3,0 GHz",
        "alias": "DeviceProcessorGHZ",
        "meta": "@DeviceProcessorGHZ",
        "userDefined": true
      },
      {
        "text": " ",
        "userDefined": false
      },
      {
        "text": "Intel Xeon E5",
        "alias": "DeviceProcessorName",
        "meta": "@DeviceProcessorName",
        "userDefined": true
      },
      {
        "text": " Prozessor mit ",
        "userDefined": false
      },
      {
        "text": "8 Kernen",
        "alias": "DeviceProcessorCore",
        "meta": "@DeviceProcessorCore",
        "userDefined": true
      }
    ],
    "isTemplate": false,
    "count": 0,
    "updated": 1549901355
  },
  {
    "id": "0169b278-f4b9-417f-ba17-6e71d9c2a6e3",
    "data": [
      {
        "text": "3,0 GHz",
        "alias": "DeviceProcessorGHZ",
        "meta": "@DeviceProcessorGHZ",
        "userDefined": true
      },
      {
        "text": " ",
        "userDefined": false
      },
      {
        "text": "Intel Core i5",
        "alias": "DeviceProcessorName",
        "meta": "@DeviceProcessorName",
        "userDefined": true
      },
      {
        "text": " Prozessor mit ",
        "userDefined": false
      },
      {
        "text": "6 Kernen",
        "alias": "DeviceProcessorCore",
        "meta": "@DeviceProcessorCore",
        "userDefined": true
      }
    ],
    "isTemplate": false,
    "count": 0,
    "updated": 1549901355
  },
  {
    "id": "dbec47e1-0b99-4901-b7aa-42590d84a05b",
    "data": [
      {
        "text": "2,9 GHz",
        "alias": "DeviceProcessorGHZ",
        "meta": "@DeviceProcessorGHZ",
        "userDefined": true
      },
      {
        "text": " ",
        "userDefined": false
      },
      {
        "text": "Intel Core i9",
        "alias": "DeviceProcessorName",
        "meta": "@DeviceProcessorName",
        "userDefined": false
      },
      {
        "text": " ",
        "userDefined": false
      },
      {
        "text": "Prozessor",
        "meta": "@sys.ignore",
        "userDefined": false
      },
      {
        "text": " mit ",
        "userDefined": false
      },
      {
        "text": "6 Kernen",
        "alias": "DeviceProcessorCore",
        "meta": "@DeviceProcessorCore",
        "userDefined": false
      }
    ],
    "isTemplate": false,
    "count": 0,
    "updated": 1549901355
  },
  {
    "id": "fc370745-c52b-486d-b1b2-7e027c186b95",
    "data": [
      {
        "text": "Zwei AMD FirePro D700 GPUs mit je 6 GB GDDR5 VRAM Speicher",
        "alias": "DeviceGraphicCard",
        "meta": "@DeviceGraphicCard",
        "userDefined": false
      }
    ],
    "isTemplate": false,
    "count": 0,
    "updated": 1549899003
  },
  {
    "id": "80fd64ad-2c30-4f19-bab0-ee68bfb8a9a7",
    "data": [
      {
        "text": "Zwei AMD FirePro D500 GPUs mit je 3 GB GDDR5 VRAM Speicher",
        "alias": "DeviceGraphicCard",
        "meta": "@DeviceGraphicCard",
        "userDefined": false
      }
    ],
    "isTemplate": false,
    "count": 0,
    "updated": 1549899003
  },
  {
    "id": "8180216b-dc1c-489d-b298-f2d5cfc24452",
    "data": [
      {
        "text": "Radeon Pro 580 mit 8 GB Videospeicher",
        "alias": "DeviceGraphicCard",
        "meta": "@DeviceGraphicCard",
        "userDefined": false
      }
    ],
    "isTemplate": false,
    "count": 1,
    "updated": 1549899003
  },
  {
    "id": "7984e04d-e026-4c81-920f-2123c87ef9fc",
    "data": [
      {
        "text": "Radeon Pro 575 mit 4 GB Videospeicher",
        "alias": "DeviceGraphicCard",
        "meta": "@DeviceGraphicCard",
        "userDefined": false
      }
    ],
    "isTemplate": false,
    "count": 1,
    "updated": 1549899003
  },
  {
    "id": "16114628-95a6-4ef6-a562-ba5f05f3365f",
    "data": [
      {
        "text": "Radeon Pro 570 mit 4 GB Videospeicher",
        "alias": "DeviceGraphicCard",
        "meta": "@DeviceGraphicCard",
        "userDefined": false
      }
    ],
    "isTemplate": false,
    "count": 0,
    "updated": 1549899003
  },
  {
    "id": "78a76623-5a1e-4d79-83d4-f3830b45cd29",
    "data": [
      {
        "text": "Radeon Pro 560 mit 4 GB Videospeicher",
        "alias": "DeviceGraphicCard",
        "meta": "@DeviceGraphicCard",
        "userDefined": false
      }
    ],
    "isTemplate": false,
    "count": 1,
    "updated": 1549899003
  },
  {
    "id": "73f434d2-6f1c-47af-95bf-4daeb30e670b",
    "data": [
      {
        "text": "Intel HD Graphics 615",
        "alias": "DeviceGraphicCard",
        "meta": "@DeviceGraphicCard",
        "userDefined": true
      }
    ],
    "isTemplate": false,
    "count": 0
  },
  {
    "id": "1591cf82-b72b-4b9a-b0fd-15e1b3e8b6ce",
    "data": [
      {
        "text": "Intel HD Graphics 6000",
        "alias": "DeviceGraphicCard",
        "meta": "@DeviceGraphicCard",
        "userDefined": true
      }
    ],
    "isTemplate": false,
    "count": 0
  },
  {
    "id": "fe9778ef-47ea-4f44-bc9a-cab7365d00a4",
    "data": [
      {
        "text": "Radeon Pro 560X mit 4 GB GDDR5 Grafikspeicher",
        "alias": "DeviceGraphicCard",
        "meta": "@DeviceGraphicCard",
        "userDefined": true
      }
    ],
    "isTemplate": false,
    "count": 0
  },
  {
    "id": "578e943e-f6a4-4674-b8b7-1136427a399b",
    "data": [
      {
        "text": "Radeon Pro 555X mit 4 GB GDDR5 Grafikspeicher",
        "alias": "DeviceGraphicCard",
        "meta": "@DeviceGraphicCard",
        "userDefined": true
      }
    ],
    "isTemplate": false,
    "count": 0
  },
  {
    "id": "0f93c2d5-cb52-4bdb-be1b-be1238907ecc",
    "data": [
      {
        "text": "Intel Iris Plus Graphics 655",
        "alias": "DeviceGraphicCard",
        "meta": "@DeviceGraphicCard",
        "userDefined": true
      }
    ],
    "isTemplate": false,
    "count": 0
  },
  {
    "id": "f389955c-60ca-497f-a63b-92175b202e87",
    "data": [
      {
        "text": "Radeon Pro Vega 64 mit 16 GB HBM2 Grafikspeicher",
        "alias": "DeviceGraphicCard",
        "meta": "@DeviceGraphicCard",
        "userDefined": false
      }
    ],
    "isTemplate": false,
    "count": 0,
    "updated": 1549899003
  },
  {
    "id": "fafc64e0-e684-48fc-a786-e4850722eb23",
    "data": [
      {
        "text": "Radeon Pro Vega 56 mit 8 GB HBM2 Grafikspeicher",
        "alias": "DeviceGraphicCard",
        "meta": "@DeviceGraphicCard",
        "userDefined": false
      }
    ],
    "isTemplate": false,
    "count": 1,
    "updated": 1549899003
  },
  {
    "id": "14bfed52-556e-4005-9b71-e189a9ea6896",
    "data": [
      {
        "text": "Radeon Pro 555 mit 2 GB Videospeicher",
        "alias": "DeviceGraphicCard",
        "meta": "@DeviceGraphicCard",
        "userDefined": false
      }
    ],
    "isTemplate": false,
    "count": 0,
    "updated": 1549899003
  },
  {
    "id": "1f046273-5422-4d5c-96b0-d6c128dfe9ad",
    "data": [
      {
        "text": "Intel UHD Graphics 630",
        "alias": "DeviceGraphicCard",
        "meta": "@DeviceGraphicCard",
        "userDefined": true
      }
    ],
    "isTemplate": false,
    "count": 0
  },
  {
    "id": "636929f5-7898-4c65-ab09-fbe279fa507e",
    "data": [
      {
        "text": "Intel UHD Graphics 617",
        "alias": "DeviceGraphicCard",
        "meta": "@DeviceGraphicCard",
        "userDefined": true
      }
    ],
    "isTemplate": false,
    "count": 1
  },
  {
    "id": "54ad1927-3d7b-4748-9fef-c0191da09faf",
    "data": [
      {
        "text": "Intel Iris Plus Graphics 640",
        "alias": "DeviceGraphicCard",
        "meta": "@DeviceGraphicCard",
        "userDefined": false
      }
    ],
    "isTemplate": false,
    "count": 0,
    "updated": 1549899003
  },
  {
    "id": "7c31ec87-c101-4a2c-baaa-a28f5fa544b7",
    "data": [
      {
        "text": "2,9 GHz",
        "alias": "DeviceProcessorGHZ",
        "meta": "@DeviceProcessorGHZ",
        "userDefined": true
      }
    ],
    "isTemplate": false,
    "count": 0,
    "updated": 1549790328
  },
  {
    "id": "730213e7-17e7-4f71-a2fb-fc830d2cc058",
    "data": [
      {
        "text": "Laptop",
        "alias": "DeviceType",
        "meta": "@DeviceType",
        "userDefined": false
      }
    ],
    "isTemplate": false,
    "count": 0,
    "updated": 1549200508
  },
  {
    "id": "9c4f0162-82fc-4def-ad87-166fc3a2984d",
    "data": [
      {
        "text": "All-in-one",
        "alias": "DeviceType",
        "meta": "@DeviceType",
        "userDefined": false
      }
    ],
    "isTemplate": false,
    "count": 0,
    "updated": 1549880572
  },
  {
    "id": "2f181b6b-081a-46f2-b3b5-a1d459afcc89",
    "data": [
      {
        "text": "Desktop",
        "alias": "DeviceType",
        "meta": "@DeviceType",
        "userDefined": false
      }
    ],
    "isTemplate": false,
    "count": 0,
    "updated": 1549880572
  },
  {
    "id": "0180284b-75da-4c53-85db-41984804cac2",
    "data": [
      {
        "text": "4,2 GHz",
        "alias": "DeviceProcessorGHZ",
        "meta": "@DeviceProcessorGHZ",
        "userDefined": true
      }
    ],
    "isTemplate": false,
    "count": 0,
    "updated": 1549790328
  },
  {
    "id": "2528fd55-b243-480b-ab11-8dea520f744c",
    "data": [
      {
        "text": "3,8 GHz",
        "alias": "DeviceProcessorGHZ",
        "meta": "@DeviceProcessorGHZ",
        "userDefined": true
      }
    ],
    "isTemplate": false,
    "count": 0,
    "updated": 1549790328
  },
  {
    "id": "ff63c031-9dc0-4c28-95ec-49d0c21e7a26",
    "data": [
      {
        "text": "3,5 GHz",
        "alias": "DeviceProcessorGHZ",
        "meta": "@DeviceProcessorGHZ",
        "userDefined": true
      }
    ],
    "isTemplate": false,
    "count": 0,
    "updated": 1549790328
  },
  {
    "id": "a067ab7d-c479-4828-bef6-6ce992cd84f0",
    "data": [
      {
        "text": "3,6 GHz",
        "alias": "DeviceProcessorGHZ",
        "meta": "@DeviceProcessorGHZ",
        "userDefined": true
      }
    ],
    "isTemplate": false,
    "count": 0,
    "updated": 1549790328
  },
  {
    "id": "24af395a-2bde-42b0-85f8-c2a5f4deb234",
    "data": [
      {
        "text": "3,4 GHz",
        "alias": "DeviceProcessorGHZ",
        "meta": "@DeviceProcessorGHZ",
        "userDefined": true
      }
    ],
    "isTemplate": false,
    "count": 0,
    "updated": 1549790328
  },
  {
    "id": "efcfe80a-0d89-4e77-8837-1669dd067378",
    "data": [
      {
        "text": "3,2 GHz",
        "alias": "DeviceProcessorGHZ",
        "meta": "@DeviceProcessorGHZ",
        "userDefined": true
      }
    ],
    "isTemplate": false,
    "count": 0,
    "updated": 1549790328
  },
  {
    "id": "2035fb66-a16f-49eb-b6b2-20dc5d25cbb6",
    "data": [
      {
        "text": "3,0 GHz",
        "alias": "DeviceProcessorGHZ",
        "meta": "@DeviceProcessorGHZ",
        "userDefined": true
      }
    ],
    "isTemplate": false,
    "count": 1,
    "updated": 1549790328
  },
  {
    "id": "18eebc4a-a424-4415-895f-d207a348c2f7",
    "data": [
      {
        "text": "2,6 GHz",
        "alias": "DeviceProcessorGHZ",
        "meta": "@DeviceProcessorGHZ",
        "userDefined": true
      }
    ],
    "isTemplate": false,
    "count": 0,
    "updated": 1549790328
  },
  {
    "id": "6d383d44-80dc-42a2-a7e6-263a658d9d15",
    "data": [
      {
        "text": "1,8 GHz",
        "alias": "DeviceProcessorGHZ",
        "meta": "@DeviceProcessorGHZ",
        "userDefined": true
      }
    ],
    "isTemplate": false,
    "count": 0,
    "updated": 1549790328
  },
  {
    "id": "b868b3f8-ee2b-4a5b-8371-2dd6ecea17f5",
    "data": [
      {
        "text": "1,6 GHz",
        "alias": "DeviceProcessorGHZ",
        "meta": "@DeviceProcessorGHZ",
        "userDefined": true
      }
    ],
    "isTemplate": false,
    "count": 0,
    "updated": 1549790328
  },
  {
    "id": "7bf22459-3c87-4241-bcc3-885e7638c58c",
    "data": [
      {
        "text": "1,4 GHz",
        "alias": "DeviceProcessorGHZ",
        "meta": "@DeviceProcessorGHZ",
        "userDefined": true
      }
    ],
    "isTemplate": false,
    "count": 0,
    "updated": 1549790328
  },
  {
    "id": "87c47bd6-befb-4f53-82f3-edd61d2a5934",
    "data": [
      {
        "text": "2,2 GHz",
        "alias": "DeviceProcessorGHZ",
        "meta": "@DeviceProcessorGHZ",
        "userDefined": true
      }
    ],
    "isTemplate": false,
    "count": 0,
    "updated": 1549790328
  },
  {
    "id": "5a83dc0e-021c-48de-b9b1-84bf9f2760e1",
    "data": [
      {
        "text": "1,2 GHz",
        "alias": "DeviceProcessorGHZ",
        "meta": "@DeviceProcessorGHZ",
        "userDefined": true
      }
    ],
    "isTemplate": false,
    "count": 0,
    "updated": 1549790328
  },
  {
    "id": "5297f2b3-ac22-45df-ba65-c6ac0a49ed9e",
    "data": [
      {
        "text": "1,3 GHz",
        "alias": "DeviceProcessorGHZ",
        "meta": "@DeviceProcessorGHZ",
        "userDefined": true
      }
    ],
    "isTemplate": false,
    "count": 0,
    "updated": 1549790328
  },
  {
    "id": "7b27dc67-c045-4903-8980-d753ecee97cf",
    "data": [
      {
        "text": "2,7 GHz",
        "alias": "DeviceProcessorGHZ",
        "meta": "@DeviceProcessorGHZ",
        "userDefined": true
      }
    ],
    "isTemplate": false,
    "count": 0,
    "updated": 1549790328
  },
  {
    "id": "a459c847-ba6b-4c5f-be71-797028389ab6",
    "data": [
      {
        "text": "2,5 GHz",
        "alias": "DeviceProcessorGHZ",
        "meta": "@DeviceProcessorGHZ",
        "userDefined": true
      }
    ],
    "isTemplate": false,
    "count": 1,
    "updated": 1549789319
  },
  {
    "id": "06f7a198-2ecf-46df-b83c-2f4356e02775",
    "data": [
      {
        "text": "2,7 GHz",
        "alias": "DeviceProcessorGHZ",
        "meta": "@DeviceProcessorGHZ",
        "userDefined": true
      },
      {
        "text": " ",
        "userDefined": false
      },
      {
        "text": "Intel Xeon E5",
        "alias": "DeviceProcessorName",
        "meta": "@DeviceProcessorName",
        "userDefined": false
      },
      {
        "text": " ",
        "userDefined": false
      },
      {
        "text": "Prozessor",
        "meta": "@sys.ignore",
        "userDefined": false
      },
      {
        "text": " mit ",
        "userDefined": false
      },
      {
        "text": "12 Kernen",
        "alias": "DeviceProcessorCore",
        "meta": "@DeviceProcessorCore",
        "userDefined": false
      }
    ],
    "isTemplate": false,
    "count": 0,
    "updated": 1549789319
  },
  {
    "id": "33792572-f80b-4449-a289-19ffdcd5e91c",
    "data": [
      {
        "text": "2,7 GHz",
        "alias": "DeviceProcessorGHZ",
        "meta": "@DeviceProcessorGHZ",
        "userDefined": true
      },
      {
        "text": " ",
        "userDefined": false
      },
      {
        "text": "Intel Core i7",
        "alias": "DeviceProcessorName",
        "meta": "@DeviceProcessorName",
        "userDefined": true
      },
      {
        "text": " Prozessor mit ",
        "userDefined": false
      },
      {
        "text": "4 Kernen",
        "alias": "DeviceProcessorCore",
        "meta": "@DeviceProcessorCore",
        "userDefined": true
      }
    ],
    "isTemplate": false,
    "count": 0,
    "updated": 1549789319
  },
  {
    "id": "92ab75f6-6de0-4e1f-a794-33e67274667f",
    "data": [
      {
        "text": "2,6 GHz",
        "alias": "DeviceProcessorGHZ",
        "meta": "@DeviceProcessorGHZ",
        "userDefined": true
      },
      {
        "text": " ",
        "userDefined": false
      },
      {
        "text": "Intel Core i7",
        "alias": "DeviceProcessorName",
        "meta": "@DeviceProcessorName",
        "userDefined": false
      },
      {
        "text": " ",
        "userDefined": false
      },
      {
        "text": "Prozessor",
        "meta": "@sys.ignore",
        "userDefined": false
      },
      {
        "text": " mit ",
        "userDefined": false
      },
      {
        "text": "6 Kernen",
        "alias": "DeviceProcessorCore",
        "meta": "@DeviceProcessorCore",
        "userDefined": false
      }
    ],
    "isTemplate": false,
    "count": 0,
    "updated": 1549789319
  },
  {
    "id": "363648be-4cc5-4891-aab4-7b43b2032dd1",
    "data": [
      {
        "text": "2,5 GHz",
        "alias": "DeviceProcessorGHZ",
        "meta": "@DeviceProcessorGHZ",
        "userDefined": true
      },
      {
        "text": " ",
        "userDefined": false
      },
      {
        "text": "Intel Core i7",
        "alias": "DeviceProcessorName",
        "meta": "@DeviceProcessorName",
        "userDefined": false
      },
      {
        "text": " ",
        "userDefined": false
      },
      {
        "text": "Prozessor",
        "meta": "@sys.ignore",
        "userDefined": false
      },
      {
        "text": " mit ",
        "userDefined": false
      },
      {
        "text": "2 Kernen",
        "alias": "DeviceProcessorCore",
        "meta": "@DeviceProcessorCore",
        "userDefined": false
      }
    ],
    "isTemplate": false,
    "count": 0,
    "updated": 1549789319
  },
  {
    "id": "5d12f047-5277-482c-be6e-5a78a3157293",
    "data": [
      {
        "text": "2,5 GHz",
        "alias": "DeviceProcessorGHZ",
        "meta": "@DeviceProcessorGHZ",
        "userDefined": true
      },
      {
        "text": " ",
        "userDefined": false
      },
      {
        "text": "Intel Xeon W",
        "alias": "DeviceProcessorName",
        "meta": "@DeviceProcessorName",
        "userDefined": false
      },
      {
        "text": " ",
        "userDefined": false
      },
      {
        "text": "Prozessor",
        "meta": "@sys.ignore",
        "userDefined": false
      },
      {
        "text": " mit ",
        "userDefined": false
      },
      {
        "text": "14 Kernen",
        "alias": "DeviceProcessorCore",
        "meta": "@DeviceProcessorCore",
        "userDefined": false
      }
    ],
    "isTemplate": false,
    "count": 0,
    "updated": 1549789319
  },
  {
    "id": "4c78f3f1-3e7f-46cd-9e31-e10f6c3b8575",
    "data": [
      {
        "text": "2,3 GHz",
        "alias": "DeviceProcessorGHZ",
        "meta": "@DeviceProcessorGHZ",
        "userDefined": true
      },
      {
        "text": " ",
        "userDefined": false
      },
      {
        "text": "Intel Xeon W",
        "alias": "DeviceProcessorName",
        "meta": "@DeviceProcessorName",
        "userDefined": false
      },
      {
        "text": " ",
        "userDefined": false
      },
      {
        "text": "Prozessor",
        "meta": "@sys.ignore",
        "userDefined": false
      },
      {
        "text": " mit ",
        "userDefined": false
      },
      {
        "text": "18 Kernen",
        "alias": "DeviceProcessorCore",
        "meta": "@DeviceProcessorCore",
        "userDefined": false
      }
    ],
    "isTemplate": false,
    "count": 0,
    "updated": 1549789319
  },
  {
    "id": "4d002d01-53ae-4dde-88b1-73f29b836170",
    "data": [
      {
        "text": "2,3 GHz",
        "alias": "DeviceProcessorGHZ",
        "meta": "@DeviceProcessorGHZ",
        "userDefined": true
      },
      {
        "text": " ",
        "userDefined": false
      },
      {
        "text": "Intel Core i5",
        "alias": "DeviceProcessorName",
        "meta": "@DeviceProcessorName",
        "userDefined": true
      },
      {
        "text": " Prozessor mit ",
        "userDefined": false
      },
      {
        "text": "2 Kernen",
        "alias": "DeviceProcessorCore",
        "meta": "@DeviceProcessorCore",
        "userDefined": true
      }
    ],
    "isTemplate": false,
    "count": 0,
    "updated": 1549785938
  },
  {
    "id": "d148d4c4-4463-4d74-86cc-fcfc89ae4a9a",
    "data": [
      {
        "text": "2,3 GHz",
        "alias": "DeviceProcessorGHZ",
        "meta": "@DeviceProcessorGHZ",
        "userDefined": true
      },
      {
        "text": " ",
        "userDefined": false
      },
      {
        "text": "Intel Core i5",
        "alias": "DeviceProcessorName",
        "meta": "@DeviceProcessorName",
        "userDefined": true
      },
      {
        "text": " Prozessor mit ",
        "userDefined": false
      },
      {
        "text": "4 Kernen",
        "alias": "DeviceProcessorCore",
        "meta": "@DeviceProcessorCore",
        "userDefined": true
      }
    ],
    "isTemplate": false,
    "count": 0,
    "updated": 1549789319
  },
  {
    "id": "c5c084de-27ab-44a3-bb1e-a16d4eb61bd6",
    "data": [
      {
        "text": "2,2 GHz",
        "alias": "DeviceProcessorGHZ",
        "meta": "@DeviceProcessorGHZ",
        "userDefined": true
      },
      {
        "text": " ",
        "userDefined": false
      },
      {
        "text": "Intel Core i7",
        "alias": "DeviceProcessorName",
        "meta": "@DeviceProcessorName",
        "userDefined": true
      },
      {
        "text": " Prozessor mit ",
        "userDefined": false
      },
      {
        "text": "6 Kernen",
        "alias": "DeviceProcessorCore",
        "meta": "@DeviceProcessorCore",
        "userDefined": true
      }
    ],
    "isTemplate": false,
    "count": 0,
    "updated": 1549789319
  },
  {
    "id": "05de5ce4-ab93-415d-9aa3-e1c586bc50ff",
    "data": [
      {
        "text": "2,2 GHz",
        "alias": "DeviceProcessorGHZ",
        "meta": "@DeviceProcessorGHZ",
        "userDefined": true
      },
      {
        "text": " ",
        "userDefined": false
      },
      {
        "text": "Intel Core i7",
        "alias": "DeviceProcessorName",
        "meta": "@DeviceProcessorName",
        "userDefined": true
      },
      {
        "text": " Prozessor mit ",
        "userDefined": false
      },
      {
        "text": "2 Kernen",
        "alias": "DeviceProcessorCore",
        "meta": "@DeviceProcessorCore",
        "userDefined": true
      }
    ],
    "isTemplate": false,
    "count": 0,
    "updated": 1549789319
  },
  {
    "id": "4b60c699-be4e-478e-91ae-23c862d5a8d8",
    "data": [
      {
        "text": "1,8 GHz",
        "alias": "DeviceProcessorGHZ",
        "meta": "@DeviceProcessorGHZ",
        "userDefined": true
      },
      {
        "text": " ",
        "userDefined": false
      },
      {
        "text": "Intel Core i5",
        "alias": "DeviceProcessorName",
        "meta": "@DeviceProcessorName",
        "userDefined": true
      },
      {
        "text": " Prozessor mit ",
        "userDefined": false
      },
      {
        "text": "2 Kernen",
        "alias": "DeviceProcessorCore",
        "meta": "@DeviceProcessorCore",
        "userDefined": true
      }
    ],
    "isTemplate": false,
    "count": 0,
    "updated": 1549789319
  },
  {
    "id": "8fc93fbf-add3-4254-a6aa-8061ead55c58",
    "data": [
      {
        "text": "1,6 GHz",
        "alias": "DeviceProcessorGHZ",
        "meta": "@DeviceProcessorGHZ",
        "userDefined": true
      },
      {
        "text": " ",
        "userDefined": false
      },
      {
        "text": "Intel Core i5",
        "alias": "DeviceProcessorName",
        "meta": "@DeviceProcessorName",
        "userDefined": true
      },
      {
        "text": " Prozessor mit ",
        "userDefined": false
      },
      {
        "text": "2 Kernen",
        "alias": "DeviceProcessorCore",
        "meta": "@DeviceProcessorCore",
        "userDefined": true
      }
    ],
    "isTemplate": false,
    "count": 0,
    "updated": 1549789319
  },
  {
    "id": "7f763d1b-040e-443a-9741-58a63b42203b",
    "data": [
      {
        "text": "1,4 GHz",
        "alias": "DeviceProcessorGHZ",
        "meta": "@DeviceProcessorGHZ",
        "userDefined": true
      },
      {
        "text": " ",
        "userDefined": false
      },
      {
        "text": "Intel Core i7",
        "alias": "DeviceProcessorName",
        "meta": "@DeviceProcessorName",
        "userDefined": true
      },
      {
        "text": " ",
        "userDefined": false
      },
      {
        "text": "Prozessor",
        "meta": "@sys.ignore",
        "userDefined": false
      },
      {
        "text": " mit ",
        "userDefined": false
      },
      {
        "text": "2 Kernen",
        "alias": "DeviceProcessorCore",
        "meta": "@DeviceProcessorCore",
        "userDefined": true
      }
    ],
    "isTemplate": false,
    "count": 0,
    "updated": 1549789319
  },
  {
    "id": "2add2b03-8156-4f9f-93dd-b813a7867166",
    "data": [
      {
        "text": "1,3 GHz",
        "alias": "DeviceProcessorGHZ",
        "meta": "@DeviceProcessorGHZ",
        "userDefined": true
      },
      {
        "text": " ",
        "userDefined": false
      },
      {
        "text": "Intel Core i5",
        "alias": "DeviceProcessorName",
        "meta": "@DeviceProcessorName",
        "userDefined": true
      },
      {
        "text": " ",
        "userDefined": false
      },
      {
        "text": "Prozessor",
        "meta": "@sys.ignore",
        "userDefined": false
      },
      {
        "text": " mit ",
        "userDefined": false
      },
      {
        "text": "2 Kernen",
        "alias": "DeviceProcessorCore",
        "meta": "@DeviceProcessorCore",
        "userDefined": true
      }
    ],
    "isTemplate": false,
    "count": 0,
    "updated": 1549789319
  },
  {
    "id": "8c43c39c-17a1-478e-ac05-605d97852fcd",
    "data": [
      {
        "text": "1,2 GHz",
        "alias": "DeviceProcessorGHZ",
        "meta": "@DeviceProcessorGHZ",
        "userDefined": true
      },
      {
        "text": " ",
        "userDefined": false
      },
      {
        "text": "Intel Core m3",
        "alias": "DeviceProcessorName",
        "meta": "@DeviceProcessorName",
        "userDefined": true
      },
      {
        "text": " ",
        "userDefined": false
      },
      {
        "text": "Prozessor",
        "meta": "@sys.ignore",
        "userDefined": false
      },
      {
        "text": " mit ",
        "userDefined": false
      },
      {
        "text": "2 Kernen",
        "alias": "DeviceProcessorCore",
        "meta": "@DeviceProcessorCore",
        "userDefined": true
      }
    ],
    "isTemplate": false,
    "count": 0,
    "updated": 1549789319
  },
  {
    "id": "813bf28b-f52d-4974-9b2d-0281cbf9c68e",
    "data": [
      {
        "text": "Mac Book Air",
        "alias": "DeviceName",
        "meta": "@DeviceName",
        "userDefined": false
      },
      {
        "text": " mit ",
        "userDefined": false
      },
      {
        "text": "2,3 GHz",
        "alias": "DeviceProcessorGHZ",
        "meta": "@DeviceProcessorGHZ",
        "userDefined": true
      },
      {
        "text": " ",
        "userDefined": false
      },
      {
        "text": "Intel Core i5",
        "alias": "DeviceProcessorName",
        "meta": "@DeviceProcessorName",
        "userDefined": true
      },
      {
        "text": " Prozessor mit ",
        "userDefined": false
      },
      {
        "text": "2 Kernen",
        "alias": "DeviceProcessorCore",
        "meta": "@DeviceProcessorCore",
        "userDefined": true
      }
    ],
    "isTemplate": false,
    "count": 1,
    "updated": 1549726532
  },
  {
    "id": "eb16015d-456e-45db-8e13-98719573062d",
    "data": [
      {
        "text": "Ich hätte gerne ",
        "userDefined": false
      },
      {
        "text": "ein",
        "meta": "@sys.ignore",
        "userDefined": false
      },
      {
        "text": " ",
        "userDefined": false
      },
      {
        "text": "MacBook Pro",
        "alias": "DeviceName",
        "meta": "@DeviceName",
        "userDefined": false
      },
      {
        "text": " mit ",
        "userDefined": false
      },
      {
        "text": "2,3 GHz",
        "alias": "DeviceProcessorGHZ",
        "meta": "@DeviceProcessorGHZ",
        "userDefined": true
      },
      {
        "text": " ",
        "userDefined": false
      },
      {
        "text": "Intel Core i5",
        "alias": "DeviceProcessorName",
        "meta": "@DeviceProcessorName",
        "userDefined": true
      },
      {
        "text": " Prozessor mit ",
        "userDefined": false
      },
      {
        "text": "2 Kernen",
        "alias": "DeviceProcessorCore",
        "meta": "@DeviceProcessorCore",
        "userDefined": true
      }
    ],
    "isTemplate": false,
    "count": 0,
    "updated": 1549785938
  },
  {
    "id": "beb35efb-1033-42ae-a5cb-a2bd2c56665c",
    "data": [
      {
        "text": "Ich möchte ",
        "userDefined": false
      },
      {
        "text": "ein",
        "meta": "@sys.ignore",
        "userDefined": false
      },
      {
        "text": " ",
        "userDefined": false
      },
      {
        "text": "MacBook Pro",
        "alias": "DeviceName",
        "meta": "@DeviceName",
        "userDefined": false
      },
      {
        "text": " mit ",
        "userDefined": false
      },
      {
        "text": "2,3 GHz",
        "alias": "DeviceProcessorGHZ",
        "meta": "@DeviceProcessorGHZ",
        "userDefined": true
      },
      {
        "text": " ",
        "userDefined": false
      },
      {
        "text": "Intel Core i5",
        "alias": "DeviceProcessorName",
        "meta": "@DeviceProcessorName",
        "userDefined": true
      },
      {
        "text": " Prozessor mit ",
        "userDefined": false
      },
      {
        "text": "2 Kernen",
        "alias": "DeviceProcessorCore",
        "meta": "@DeviceProcessorCore",
        "userDefined": true
      },
      {
        "text": " ",
        "userDefined": false
      },
      {
        "text": "kaufen",
        "meta": "@sys.ignore",
        "userDefined": true
      }
    ],
    "isTemplate": false,
    "count": 0,
    "updated": 1549785938
  },
  {
    "id": "fb9135b5-df6b-4e9d-b2dd-fb148ce5a4b7",
    "data": [
      {
        "text": "Ich möchte ",
        "userDefined": false
      },
      {
        "text": "ein",
        "meta": "@sys.ignore",
        "userDefined": false
      },
      {
        "text": " ",
        "userDefined": false
      },
      {
        "text": "Mac Book pro",
        "alias": "DeviceName",
        "meta": "@DeviceName",
        "userDefined": false
      },
      {
        "text": " für ",
        "userDefined": false
      },
      {
        "text": "1300 €",
        "alias": "UnitCurrency",
        "meta": "@sys.unit-currency",
        "userDefined": true
      },
      {
        "text": " kaufen",
        "userDefined": false
      }
    ],
    "isTemplate": false,
    "count": 0,
    "updated": 1550499136
  },
  {
    "id": "e47410bf-364e-4354-ab54-40cb351c1cc1",
    "data": [
      {
        "text": "Ich möchte ",
        "userDefined": false
      },
      {
        "text": "ein",
        "meta": "@sys.ignore",
        "userDefined": false
      },
      {
        "text": " ",
        "userDefined": false
      },
      {
        "text": "MacBook pro",
        "alias": "DeviceName",
        "meta": "@DeviceName",
        "userDefined": false
      },
      {
        "text": " mit ",
        "userDefined": false
      },
      {
        "text": "2,3 Ghz",
        "alias": "DeviceProcessorGHZ",
        "meta": "@DeviceProcessorGHZ",
        "userDefined": true
      },
      {
        "text": " ",
        "userDefined": false
      },
      {
        "text": "Dualcore",
        "alias": "DeviceProcessorCore",
        "meta": "@DeviceProcessorCore",
        "userDefined": true
      },
      {
        "text": " ",
        "userDefined": false
      },
      {
        "text": "Prozessor",
        "meta": "@sys.ignore",
        "userDefined": false
      }
    ],
    "isTemplate": false,
    "count": 0,
    "updated": 1549785938
  },
  {
    "id": "143cc63a-c4e8-4a0f-b60d-53bde187e292",
    "data": [
      {
        "text": "Möchte ",
        "userDefined": false
      },
      {
        "text": "ein",
        "meta": "@sys.ignore",
        "userDefined": false
      },
      {
        "text": " ",
        "userDefined": false
      },
      {
        "text": "MacBook Pro",
        "alias": "DeviceName",
        "meta": "@DeviceName",
        "userDefined": false
      },
      {
        "text": " ",
        "userDefined": false
      },
      {
        "text": "13",
        "alias": "DeviceDisplaySize",
        "meta": "@DeviceDisplaySize",
        "userDefined": false
      },
      {
        "text": " in ",
        "userDefined": false
      },
      {
        "text": "Silber",
        "alias": "DeviceColor",
        "meta": "@DeviceColor",
        "userDefined": false
      },
      {
        "text": " mit ",
        "userDefined": false
      },
      {
        "text": "256 GB",
        "alias": "DeviceCapacity",
        "meta": "@DeviceCapacity",
        "userDefined": false
      },
      {
        "text": " Festplatte, ",
        "userDefined": false
      },
      {
        "text": "8 GB RAM",
        "alias": "DeviceMemory",
        "meta": "@DeviceMemory",
        "userDefined": false
      },
      {
        "text": " und ",
        "userDefined": false
      },
      {
        "text": "Dualcore 2,3 Ghz",
        "meta": "@sys.ignore",
        "userDefined": true
      },
      {
        "text": " ",
        "userDefined": false
      },
      {
        "text": "Prozessor",
        "meta": "@sys.ignore",
        "userDefined": false
      },
      {
        "text": " kaufen",
        "userDefined": false
      }
    ],
    "isTemplate": false,
    "count": 0,
    "updated": 1549785938
  },
  {
    "id": "a20a2de6-3701-499f-80ce-068edc18b244",
    "data": [
      {
        "text": "Ich möchte gerne ",
        "userDefined": false
      },
      {
        "text": "ein",
        "meta": "@sys.ignore",
        "userDefined": false
      },
      {
        "text": " ",
        "userDefined": false
      },
      {
        "text": "MacBook Pro",
        "alias": "DeviceName",
        "meta": "@DeviceName",
        "userDefined": false
      },
      {
        "text": " ",
        "userDefined": false
      },
      {
        "text": "13",
        "alias": "DeviceDisplaySize",
        "meta": "@DeviceDisplaySize",
        "userDefined": false
      },
      {
        "text": " in ",
        "userDefined": false
      },
      {
        "text": "Silber",
        "alias": "DeviceColor",
        "meta": "@DeviceColor",
        "userDefined": false
      },
      {
        "text": " kaufen",
        "userDefined": false
      }
    ],
    "isTemplate": false,
    "count": 0,
    "updated": 1549642483
  },
  {
    "id": "91d18cf9-b512-4cae-ac23-521dfb3bdf55",
    "data": [
      {
        "text": "Möchte ",
        "userDefined": false
      },
      {
        "text": "ein",
        "meta": "@sys.ignore",
        "userDefined": false
      },
      {
        "text": " ",
        "userDefined": false
      },
      {
        "text": "MacBook Pro",
        "alias": "DeviceName",
        "meta": "@DeviceName",
        "userDefined": false
      },
      {
        "text": " ",
        "userDefined": false
      },
      {
        "text": "13",
        "alias": "DeviceDisplaySize",
        "meta": "@DeviceDisplaySize",
        "userDefined": false
      },
      {
        "text": " kaufen",
        "userDefined": false
      }
    ],
    "isTemplate": false,
    "count": 0,
    "updated": 1549642483
  },
  {
    "id": "83239709-8088-4445-bf08-ecc856c47385",
    "data": [
      {
        "text": "Ich möchte gerne ",
        "userDefined": false
      },
      {
        "text": "ein",
        "meta": "@sys.ignore",
        "userDefined": false
      },
      {
        "text": " ",
        "userDefined": false
      },
      {
        "text": "MacBook Air",
        "alias": "DeviceName",
        "meta": "@DeviceName",
        "userDefined": false
      },
      {
        "text": " mit ",
        "userDefined": false
      },
      {
        "text": "13 Zoll",
        "alias": "DeviceDisplaySize",
        "meta": "@DeviceDisplaySize",
        "userDefined": false
      },
      {
        "text": " ",
        "userDefined": false
      },
      {
        "text": "Display",
        "meta": "@sys.ignore",
        "userDefined": false
      },
      {
        "text": " kaufen",
        "userDefined": false
      }
    ],
    "isTemplate": false,
    "count": 0,
    "updated": 1549642483
  },
  {
    "id": "b642858c-f921-4d00-a953-3e94e06cdd2e",
    "data": [
      {
        "text": "Ich möchte gerne das ",
        "userDefined": false
      },
      {
        "text": "MacBook",
        "alias": "DeviceName",
        "meta": "@DeviceName",
        "userDefined": false
      },
      {
        "text": " kaufen",
        "userDefined": false
      }
    ],
    "isTemplate": false,
    "count": 0,
    "updated": 1549642483
  },
  {
    "id": "d89bb998-366f-4bdb-a3a5-52f397c242e6",
    "data": [
      {
        "text": "Welche ",
        "userDefined": false
      },
      {
        "text": "Macbooks",
        "alias": "DeviceType",
        "meta": "@DeviceType",
        "userDefined": true
      },
      {
        "text": " gibt es den?",
        "userDefined": false
      }
    ],
    "isTemplate": false,
    "count": 0,
    "updated": 1549642483
  },
  {
    "id": "88f5225a-49fd-4421-b70e-02684b7ce0c4",
    "data": [
      {
        "text": "Ich interessiere mich für das ",
        "userDefined": false
      },
      {
        "text": "MacBook Air",
        "alias": "DeviceName",
        "meta": "@DeviceName",
        "userDefined": false
      }
    ],
    "isTemplate": false,
    "count": 0,
    "updated": 1549642483
  },
  {
    "id": "8ed3e615-babf-48b2-90c1-e0f2def83060",
    "data": [
      {
        "text": "Ich möchte ",
        "userDefined": false
      },
      {
        "text": "ein",
        "meta": "@sys.ignore",
        "userDefined": false
      },
      {
        "text": " ",
        "userDefined": false
      },
      {
        "text": "Mac Book Pro",
        "alias": "DeviceName",
        "meta": "@DeviceName",
        "userDefined": true
      },
      {
        "text": " kaufen",
        "userDefined": false
      }
    ],
    "isTemplate": false,
    "count": 0,
    "updated": 1549642483
  },
  {
    "id": "af70e4df-cf37-4c51-87b7-8061d289af9b",
    "data": [
      {
        "text": "Notebook",
        "alias": "DeviceType",
        "meta": "@DeviceType",
        "userDefined": false
      }
    ],
    "isTemplate": false,
    "count": 1,
    "updated": 1549200508
  },
  {
    "id": "d4608127-78fc-4fb9-b74a-22e80fdd152b",
    "data": [
      {
        "text": "Macbook",
        "alias": "DeviceType",
        "meta": "@DeviceType",
        "userDefined": false
      }
    ],
    "isTemplate": false,
    "count": 0,
    "updated": 1544450646
  },
  {
    "id": "81ca5d44-1e3b-4594-b39d-5834eec36c1f",
    "data": [
      {
        "text": "Ich brauche ",
        "userDefined": false
      },
      {
        "text": "ein",
        "meta": "@sys.ignore",
        "userDefined": false
      },
      {
        "text": " ",
        "userDefined": false
      },
      {
        "text": "MacBook",
        "alias": "DeviceType",
        "meta": "@DeviceType",
        "userDefined": false
      },
      {
        "text": " in ",
        "userDefined": false
      },
      {
        "text": "rot",
        "alias": "DeviceColor",
        "meta": "@DeviceColor",
        "userDefined": false
      }
    ],
    "isTemplate": false,
    "count": 0,
    "updated": 1544447101
  },
  {
    "id": "1529abff-999b-4a72-92d0-96701aa8129d",
    "data": [
      {
        "text": "Ich möchte gerne ein ",
        "userDefined": false
      },
      {
        "text": "13 Zoll",
        "alias": "DeviceDisplaySize",
        "meta": "@DeviceDisplaySize",
        "userDefined": true
      },
      {
        "text": " ",
        "userDefined": false
      },
      {
        "text": "Mac Book Pro",
        "alias": "DeviceName",
        "meta": "@DeviceName",
        "userDefined": true
      },
      {
        "text": " kaufen",
        "userDefined": false
      }
    ],
    "isTemplate": false,
    "count": 0,
    "updated": 1544447101
  }
]