{
  "id": "78ddda15-120b-49d1-b40f-21867b64c5f3",
  "parentId": "8e9abc2b-b1a6-40eb-bd30-c510853f411e",
  "rootParentId": "8e9abc2b-b1a6-40eb-bd30-c510853f411e",
  "name": "buy.iPad - yes",
  "auto": true,
  "contexts": [
    "buyiPad-followup"
  ],
  "responses": [
    {
      "resetContexts": false,
      "action": "buyiPad.buyiPad-yes",
      "affectedContexts": [
        {
          "name": "buyiPad-yes-followup",
          "parameters": {},
          "lifespan": 2
        }
      ],
      "parameters": [
        {
          "id": "de47f91a-a96a-4ea5-9010-72c137b0f39f",
          "required": false,
          "dataType": "@UpSell",
          "name": "UpSell",
          "value": "$UpSell",
          "prompts": [
            {
              "lang": "de",
              "value": "Möchtest du den Speicher oder die Konnektivität upgraden?"
            }
          ],
          "isList": false
        }
      ],
      "messages": [
        {
          "type": 0,
          "lang": "de",
          "speech": []
        }
      ],
      "defaultResponsePlatforms": {},
      "speech": []
    }
  ],
  "priority": 1000000,
  "webhookUsed": true,
  "webhookForSlotFilling": true,
  "lastUpdate": 1551103120,
  "fallbackIntent": false,
  "events": []
}