[
  {
    "id": "d618f50c-c3b2-40d8-b9c8-5ef538c61f2b",
    "data": [
      {
        "text": "begeistert",
        "userDefined": false
      }
    ],
    "isTemplate": false,
    "count": 0,
    "updated": 0
  },
  {
    "id": "925d9218-0bc5-4974-a626-f53e54dbcea0",
    "data": [
      {
        "text": "hui",
        "userDefined": false
      }
    ],
    "isTemplate": false,
    "count": 0,
    "updated": 0
  },
  {
    "id": "1081c2d8-189d-4174-8e66-a3f8740d7e87",
    "data": [
      {
        "text": "boah",
        "userDefined": false
      }
    ],
    "isTemplate": false,
    "count": 0,
    "updated": 0
  },
  {
    "id": "668ae56c-8e38-4c72-999b-ca861b324bcb",
    "data": [
      {
        "text": "wooow",
        "userDefined": false
      }
    ],
    "isTemplate": false,
    "count": 0,
    "updated": 0
  },
  {
    "id": "b77d2843-89c5-456a-8cf3-6d5ba99756d9",
    "data": [
      {
        "text": "ich bin beeindruckt",
        "userDefined": false
      }
    ],
    "isTemplate": false,
    "count": 0,
    "updated": 0
  },
  {
    "id": "e438305c-1dd4-4361-a911-2bc4693e8954",
    "data": [
      {
        "text": "wow",
        "meta": "@sys.ignore",
        "userDefined": false
      }
    ],
    "isTemplate": false,
    "count": 0,
    "updated": 0
  },
  {
    "id": "0fd9d692-2bff-407d-bb7d-08e60e1c8426",
    "data": [
      {
        "text": "beeindruckt",
        "userDefined": false
      }
    ],
    "isTemplate": false,
    "count": 0,
    "updated": 0
  },
  {
    "id": "740a45aa-8fc6-48c2-972a-42f9d20ac55b",
    "data": [
      {
        "text": "wow",
        "meta": "@sys.ignore",
        "userDefined": false
      },
      {
        "text": " ",
        "userDefined": false
      },
      {
        "text": "wow",
        "meta": "@sys.ignore",
        "userDefined": false
      }
    ],
    "isTemplate": false,
    "count": 0,
    "updated": 0
  }
]