[
  {
    "id": "955e3079-e84d-427f-8dc8-b27692701362",
    "data": [
      {
        "text": "bin zurück",
        "userDefined": false
      }
    ],
    "isTemplate": false,
    "count": 0,
    "updated": 0
  },
  {
    "id": "5c94a6c5-ba25-41da-9794-a0b0b562fbb2",
    "data": [
      {
        "text": "guck mal wer zurück ist",
        "userDefined": false
      }
    ],
    "isTemplate": false,
    "count": 0,
    "updated": 0
  },
  {
    "id": "961659ca-0665-4a9f-bd74-ac5c034b78e6",
    "data": [
      {
        "text": "guck mal wer wieder da ist",
        "userDefined": false
      }
    ],
    "isTemplate": false,
    "count": 0,
    "updated": 0
  },
  {
    "id": "82237b05-1ea2-41dd-ab2a-452c38739336",
    "data": [
      {
        "text": "wieder da",
        "userDefined": false
      }
    ],
    "isTemplate": false,
    "count": 0,
    "updated": 0
  },
  {
    "id": "b0910d54-de65-42cc-8e7d-cbc843a2ab48",
    "data": [
      {
        "text": "da bin ich wieder",
        "userDefined": false
      }
    ],
    "isTemplate": false,
    "count": 0,
    "updated": 0
  },
  {
    "id": "fd97f2ea-04d9-48a9-a36c-45ce29362803",
    "data": [
      {
        "text": "ich bin",
        "meta": "@sys.ignore",
        "userDefined": false
      },
      {
        "text": " ",
        "userDefined": false
      },
      {
        "text": "wieder zurück",
        "meta": "@sys.ignore",
        "userDefined": false
      }
    ],
    "isTemplate": false,
    "count": 0,
    "updated": 0
  },
  {
    "id": "6c2454c4-dfbf-4313-9d0a-2cc9e35b545a",
    "data": [
      {
        "text": "hier bin ich",
        "userDefined": false
      }
    ],
    "isTemplate": false,
    "count": 0,
    "updated": 0
  },
  {
    "id": "aa7baba7-6d90-40f3-a44f-5dc14c29dd29",
    "data": [
      {
        "text": "ich bin wieder da",
        "userDefined": false
      }
    ],
    "isTemplate": false,
    "count": 0,
    "updated": 0
  },
  {
    "id": "f4c4a780-72e2-49eb-b12a-7f86880ba000",
    "data": [
      {
        "text": "ich bin",
        "meta": "@sys.ignore",
        "userDefined": false
      },
      {
        "text": " ",
        "userDefined": false
      },
      {
        "text": "wieder hier",
        "meta": "@sys.ignore",
        "userDefined": false
      }
    ],
    "isTemplate": false,
    "count": 0,
    "updated": 0
  },
  {
    "id": "c0ff18ff-5bd3-4436-a53f-dffaa55a6723",
    "data": [
      {
        "text": "ich bin",
        "meta": "@sys.ignore",
        "userDefined": false
      },
      {
        "text": " ",
        "userDefined": false
      },
      {
        "text": "zurück",
        "meta": "@sys.ignore",
        "userDefined": false
      }
    ],
    "isTemplate": false,
    "count": 0,
    "updated": 0
  }
]