[
  {
    "id": "1dccda30-ac52-4003-a4c1-d36c3c703ead",
    "data": [
      {
        "text": "ich mach nur Witze",
        "userDefined": false
      }
    ],
    "isTemplate": false,
    "count": 0,
    "updated": 0
  },
  {
    "id": "96d8c471-f1d8-45e1-a745-1c3223e21589",
    "data": [
      {
        "text": "das",
        "meta": "@sys.ignore",
        "userDefined": true
      },
      {
        "text": " ",
        "userDefined": false
      },
      {
        "text": "ist",
        "meta": "@sys.ignore",
        "userDefined": true
      },
      {
        "text": " nur ",
        "userDefined": false
      },
      {
        "text": "ein",
        "meta": "@sys.ignore",
        "userDefined": true
      },
      {
        "text": " Witz",
        "userDefined": false
      }
    ],
    "isTemplate": false,
    "count": 0,
    "updated": 0
  },
  {
    "id": "22cc7999-5b60-4217-9541-aa73417acbe9",
    "data": [
      {
        "text": "hier",
        "meta": "@sys.ignore",
        "userDefined": true
      },
      {
        "text": " ",
        "userDefined": false
      },
      {
        "text": "ist",
        "meta": "@sys.ignore",
        "userDefined": true
      },
      {
        "text": " ",
        "userDefined": false
      },
      {
        "text": "ein",
        "meta": "@sys.ignore",
        "userDefined": true
      },
      {
        "text": " Witz",
        "userDefined": false
      }
    ],
    "isTemplate": false,
    "count": 0,
    "updated": 0
  },
  {
    "id": "6bba64b2-58ba-4f10-a394-813a92e68707",
    "data": [
      {
        "text": "das ist alles nur Spaß",
        "userDefined": false
      }
    ],
    "isTemplate": false,
    "count": 0,
    "updated": 0
  },
  {
    "id": "c2a98276-3318-45b6-8605-1c5b43e32bf1",
    "data": [
      {
        "text": "ich mache ",
        "userDefined": false
      },
      {
        "text": "eine",
        "meta": "@sys.ignore",
        "userDefined": true
      },
      {
        "text": " Scherze",
        "userDefined": false
      }
    ],
    "isTemplate": false,
    "count": 0,
    "updated": 0
  },
  {
    "id": "1c8f5ab8-93bb-467e-84cd-be15b6baf9ac",
    "data": [
      {
        "text": "ich mache ",
        "userDefined": false
      },
      {
        "text": "Spass",
        "meta": "@sys.ignore",
        "userDefined": true
      }
    ],
    "isTemplate": false,
    "count": 1,
    "updated": 0
  },
  {
    "id": "96619c5d-5311-4a52-aa3a-928bccf973eb",
    "data": [
      {
        "text": "das",
        "meta": "@sys.ignore",
        "userDefined": true
      },
      {
        "text": " ",
        "userDefined": false
      },
      {
        "text": "ist",
        "meta": "@sys.ignore",
        "userDefined": true
      },
      {
        "text": " nur ",
        "userDefined": false
      },
      {
        "text": "eine",
        "meta": "@sys.ignore",
        "userDefined": true
      },
      {
        "text": " Scherze",
        "userDefined": false
      }
    ],
    "isTemplate": false,
    "count": 0,
    "updated": 0
  },
  {
    "id": "21279b91-a7a4-4f15-8d81-30ad2255e317",
    "data": [
      {
        "text": "war nur ein Witz",
        "userDefined": false
      }
    ],
    "isTemplate": false,
    "count": 0,
    "updated": 0
  },
  {
    "id": "4b164cbe-adb1-4208-b07f-d259a9ea85cc",
    "data": [
      {
        "text": "das",
        "meta": "@sys.ignore",
        "userDefined": true
      },
      {
        "text": " ",
        "userDefined": false
      },
      {
        "text": "war",
        "meta": "@sys.ignore",
        "userDefined": true
      },
      {
        "text": " ",
        "userDefined": false
      },
      {
        "text": "ein",
        "meta": "@sys.ignore",
        "userDefined": true
      },
      {
        "text": " Witz",
        "userDefined": false
      }
    ],
    "isTemplate": false,
    "count": 0,
    "updated": 0
  },
  {
    "id": "46cf4b3b-4921-4543-ada4-796364611f73",
    "data": [
      {
        "text": "ich mache ",
        "userDefined": false
      },
      {
        "text": "Spass",
        "meta": "@sys.ignore",
        "userDefined": true
      },
      {
        "text": " ",
        "userDefined": false
      },
      {
        "text": "und",
        "meta": "@sys.ignore",
        "userDefined": true
      },
      {
        "text": " ",
        "userDefined": false
      },
      {
        "text": "so",
        "meta": "@sys.ignore",
        "userDefined": true
      }
    ],
    "isTemplate": false,
    "count": 1,
    "updated": 0
  },
  {
    "id": "66aed776-d2dd-4b0b-9d18-e15dd2bfff45",
    "data": [
      {
        "text": "ich mache nur ",
        "userDefined": false
      },
      {
        "text": "eine",
        "meta": "@sys.ignore",
        "userDefined": true
      },
      {
        "text": " Scherze",
        "userDefined": false
      }
    ],
    "isTemplate": false,
    "count": 0,
    "updated": 0
  },
  {
    "id": "04e955f2-2e06-4a47-9b09-0811fa398819",
    "data": [
      {
        "text": "das ist ein Scherz",
        "userDefined": false
      }
    ],
    "isTemplate": false,
    "count": 0,
    "updated": 0
  },
  {
    "id": "4a628b55-555a-4fab-8ce4-6d01d8032873",
    "data": [
      {
        "text": "das war nur ein Scherz",
        "userDefined": false
      }
    ],
    "isTemplate": false,
    "count": 0,
    "updated": 0
  },
  {
    "id": "7ec1e504-2a31-499c-9f77-86818d36bb08",
    "data": [
      {
        "text": "das ist alles nur ein Scherz",
        "userDefined": false
      }
    ],
    "isTemplate": false,
    "count": 0,
    "updated": 0
  },
  {
    "id": "03bfad80-5255-4eb8-8bdc-2f82ed9fb6c2",
    "data": [
      {
        "text": "ich scherze bloß",
        "userDefined": false
      }
    ],
    "isTemplate": false,
    "count": 0,
    "updated": 0
  },
  {
    "id": "43d35d06-2916-403e-a925-f8e472107dd7",
    "data": [
      {
        "text": "ich scherze",
        "userDefined": false
      }
    ],
    "isTemplate": false,
    "count": 1,
    "updated": 0
  },
  {
    "id": "b1b68ba0-b90a-45ef-a8a9-8c8ef5cab2fe",
    "data": [
      {
        "text": "ich finde das alles sehr witzig",
        "userDefined": false
      }
    ],
    "isTemplate": false,
    "count": 0,
    "updated": 0
  }
]