{
  "id": "a71ac07a-9a43-46fe-8818-950a08039267",
  "name": "smalltalk.appraisal.bad",
  "auto": true,
  "contexts": [],
  "responses": [
    {
      "resetContexts": false,
      "action": "smalltalk.appraisal.bad",
      "affectedContexts": [],
      "parameters": [],
      "messages": [
        {
          "type": 0,
          "lang": "de",
          "speech": "Es tut mir Leid. Bitte lass mich wissen, ob ich irgendwie helfen kann."
        }
      ],
      "defaultResponsePlatforms": {},
      "speech": []
    }
  ],
  "priority": 500000,
  "webhookUsed": false,
  "webhookForSlotFilling": false,
  "lastUpdate": 1550671931,
  "fallbackIntent": false,
  "events": []
}