{
  "id": "38448525-2ba8-44ec-aa0f-e8c85487b03e",
  "name": "smalltalk.user.sad",
  "auto": true,
  "contexts": [],
  "responses": [
    {
      "resetContexts": false,
      "action": "smalltalk.user.sad",
      "affectedContexts": [],
      "parameters": [],
      "messages": [
        {
          "type": 0,
          "lang": "de",
          "speech": "Oh, sei nicht traurig. Mach etwas, was dir Spaß macht."
        }
      ],
      "defaultResponsePlatforms": {},
      "speech": []
    }
  ],
  "priority": 500000,
  "webhookUsed": false,
  "webhookForSlotFilling": false,
  "lastUpdate": 1550745445,
  "fallbackIntent": false,
  "events": []
}