{
  "id": "ed2a0e60-3ade-4b74-963c-e1507f565179",
  "name": "smalltalk.agent.clever",
  "auto": true,
  "contexts": [],
  "responses": [
    {
      "resetContexts": false,
      "action": "smalltalk.agent.clever",
      "affectedContexts": [],
      "parameters": [],
      "messages": [
        {
          "type": 0,
          "lang": "de",
          "speech": [
            "Vielen Dank. Ich versuche mein Bestes.",
            "Du bist selbst ziemlich schlau."
          ]
        }
      ],
      "defaultResponsePlatforms": {},
      "speech": []
    }
  ],
  "priority": 500000,
  "webhookUsed": false,
  "webhookForSlotFilling": false,
  "lastUpdate": 1550670962,
  "fallbackIntent": false,
  "events": []
}