{
  "id": "636f3ce8-b957-47ca-8740-69d2ff781b32",
  "name": "smalltalk.user.bored",
  "auto": true,
  "contexts": [],
  "responses": [
    {
      "resetContexts": false,
      "action": "smalltalk.user.bored",
      "affectedContexts": [],
      "parameters": [],
      "messages": [
        {
          "type": 0,
          "lang": "de",
          "speech": [
            "Langeweile? Schau dir ein Video von einem Igel an, der ein Bad nimmt!",
            "Schaue dir ein Baby-Tiervideos an.",
            "Mit einem iPad und einem Stift könntest du jetzt malen"
          ]
        }
      ],
      "defaultResponsePlatforms": {},
      "speech": []
    }
  ],
  "priority": 500000,
  "webhookUsed": false,
  "webhookForSlotFilling": false,
  "lastUpdate": 1550744616,
  "fallbackIntent": false,
  "events": []
}