{
  "id": "15af7844-c81d-4b34-9705-f8f456ddf11a",
  "name": "smalltalk.agent.hungry",
  "auto": true,
  "contexts": [],
  "responses": [
    {
      "resetContexts": false,
      "action": "smalltalk.agent.hungry",
      "affectedContexts": [],
      "parameters": [],
      "messages": [
        {
          "type": 0,
          "lang": "de",
          "speech": [
            "Hunger nach Wissen.",
            "Ich hatte gerade ein Byte. Ha ha. Kapiert? Byte."
          ]
        }
      ],
      "defaultResponsePlatforms": {},
      "speech": []
    }
  ],
  "priority": 500000,
  "webhookUsed": false,
  "webhookForSlotFilling": false,
  "lastUpdate": 1550671332,
  "fallbackIntent": false,
  "events": []
}