[
  {
    "id": "edf26737-877a-4e2a-8c6e-67640051e23b",
    "data": [
      {
        "text": "einen wunderschönen guten ",
        "userDefined": false
      },
      {
        "text": "Morgen",
        "meta": "@sys.ignore",
        "userDefined": false
      }
    ],
    "isTemplate": false,
    "count": 0,
    "updated": 0
  },
  {
    "id": "8d405d5d-fc89-477a-8f02-fbf083910c7e",
    "data": [
      {
        "text": "hast du gut geschlafen",
        "userDefined": false
      }
    ],
    "isTemplate": false,
    "count": 0,
    "updated": 0
  },
  {
    "id": "d0c46c07-9163-4b7a-be1c-c1c5aa8c7be9",
    "data": [
      {
        "text": "schönen guten ",
        "userDefined": false
      },
      {
        "text": "Morgen",
        "meta": "@sys.ignore",
        "userDefined": false
      }
    ],
    "isTemplate": false,
    "count": 0,
    "updated": 0
  },
  {
    "id": "7cca9ba0-8975-4b8e-92a8-b085528b88d3",
    "data": [
      {
        "text": "guten ",
        "userDefined": false
      },
      {
        "text": "Morgen",
        "meta": "@sys.ignore",
        "userDefined": false
      }
    ],
    "isTemplate": false,
    "count": 0,
    "updated": 0
  },
  {
    "id": "c3ad522d-86e5-408f-8480-ee2c2c5e72dc",
    "data": [
      {
        "text": "Morgen",
        "meta": "@sys.ignore",
        "userDefined": false
      }
    ],
    "isTemplate": false,
    "count": 0,
    "updated": 0
  }
]