[
  {
    "id": "817cfd5f-9e38-4bf3-9872-64528c0c5174",
    "data": [
      {
        "text": "es hat Spaß gemacht mit dir zu reden",
        "userDefined": false
      }
    ],
    "isTemplate": false,
    "count": 0,
    "updated": 0
  },
  {
    "id": "90dc727b-9ba3-4f8b-a60a-eb4fb43e8018",
    "data": [
      {
        "text": "toll mit Ihnen zu reden",
        "userDefined": false
      }
    ],
    "isTemplate": false,
    "count": 0,
    "updated": 0
  },
  {
    "id": "a5aabef8-903d-45d0-bcca-a0e52b8763d5",
    "data": [
      {
        "text": "danke für die nette Unterhaltung",
        "userDefined": false
      }
    ],
    "isTemplate": false,
    "count": 0,
    "updated": 0
  },
  {
    "id": "da08790e-5b89-41cb-b0ef-a8be2d737e7c",
    "data": [
      {
        "text": "schön mit dir zu plaudern",
        "userDefined": false
      }
    ],
    "isTemplate": false,
    "count": 0,
    "updated": 0
  },
  {
    "id": "192a7a73-0879-4687-bdb7-cf2ff83ed212",
    "data": [
      {
        "text": "schön ",
        "userDefined": false
      },
      {
        "text": "mit dir",
        "meta": "@sys.ignore",
        "userDefined": false
      },
      {
        "text": " zu reden",
        "userDefined": false
      }
    ],
    "isTemplate": false,
    "count": 0,
    "updated": 0
  },
  {
    "id": "8a8f2a82-bbda-4ee0-9319-9228093b7644",
    "data": [
      {
        "text": "es war gut mit dir zu sprechen",
        "userDefined": false
      }
    ],
    "isTemplate": false,
    "count": 0,
    "updated": 0
  },
  {
    "id": "5b544da1-20d4-46db-b4d6-a36b2d4b576e",
    "data": [
      {
        "text": "nett mit dir zu reden",
        "userDefined": false
      }
    ],
    "isTemplate": false,
    "count": 0,
    "updated": 0
  },
  {
    "id": "2feca938-f86c-4977-837b-41f9753d75a0",
    "data": [
      {
        "text": "danke für das nette Gespräch",
        "userDefined": false
      }
    ],
    "isTemplate": false,
    "count": 0,
    "updated": 0
  },
  {
    "id": "3a0e42c6-72d9-4aa8-b058-2dac40524b6c",
    "data": [
      {
        "text": "freut mich ",
        "userDefined": false
      },
      {
        "text": "mit dir",
        "meta": "@sys.ignore",
        "userDefined": false
      },
      {
        "text": " zu reden",
        "userDefined": false
      }
    ],
    "isTemplate": false,
    "count": 0,
    "updated": 0
  }
]