{
  "id": "74d7dc25-676f-467d-9e33-4cd55cabf0c6",
  "name": "smalltalk.greetings.hello",
  "auto": true,
  "contexts": [],
  "responses": [
    {
      "resetContexts": false,
      "action": "smalltalk.greetings.hello",
      "affectedContexts": [],
      "parameters": [],
      "messages": [
        {
          "type": 0,
          "lang": "de",
          "speech": [
            "Hallo, mein Freund!",
            "Hi, wie geht es dir?"
          ]
        }
      ],
      "defaultResponsePlatforms": {},
      "speech": []
    }
  ],
  "priority": 500000,
  "webhookUsed": false,
  "webhookForSlotFilling": false,
  "lastUpdate": 1550744109,
  "fallbackIntent": false,
  "events": []
}