[
  {
    "id": "b1663be4-e718-4078-98b2-917616509289",
    "data": [
      {
        "text": "Entschuldigung",
        "userDefined": false
      }
    ],
    "isTemplate": false,
    "count": 0,
    "updated": 0
  },
  {
    "id": "8d807d98-4f64-4a67-b8a3-fdda20bfa0b3",
    "data": [
      {
        "text": "tut mir Leid",
        "userDefined": false
      }
    ],
    "isTemplate": false,
    "count": 0,
    "updated": 0
  },
  {
    "id": "de78ffe8-2fc0-4ca4-a30f-1f58224d7684",
    "data": [
      {
        "text": "entschuldige mich bitte",
        "userDefined": false
      }
    ],
    "isTemplate": false,
    "count": 0,
    "updated": 0
  },
  {
    "id": "fa181ef7-7ab7-41df-8b03-340884cd57ac",
    "data": [
      {
        "text": "meine Entschuldigung",
        "userDefined": false
      }
    ],
    "isTemplate": false,
    "count": 0,
    "updated": 0
  },
  {
    "id": "0057a63b-0f4b-4b57-ac50-2575bd05a5ab",
    "data": [
      {
        "text": "ich entschuldige mich",
        "userDefined": false
      }
    ],
    "isTemplate": false,
    "count": 0,
    "updated": 0
  },
  {
    "id": "78e46b93-a394-4e3e-a06f-7b877fef6674",
    "data": [
      {
        "text": "verzeih mir bitte",
        "userDefined": false
      }
    ],
    "isTemplate": false,
    "count": 0,
    "updated": 0
  },
  {
    "id": "fe734a37-dedd-4588-8fef-d5670761710b",
    "data": [
      {
        "text": "ich bitte ",
        "userDefined": false
      },
      {
        "text": "um",
        "meta": "@sys.ignore",
        "userDefined": false
      },
      {
        "text": " Entschuldigung",
        "userDefined": false
      }
    ],
    "isTemplate": false,
    "count": 0,
    "updated": 0
  },
  {
    "id": "6ca99418-eba7-468e-bf16-bd2cb6baa6f1",
    "data": [
      {
        "text": "verzeih mir",
        "userDefined": false
      }
    ],
    "isTemplate": false,
    "count": 0,
    "updated": 0
  },
  {
    "id": "1bc46c36-0249-42ae-9251-69c14d63ae8a",
    "data": [
      {
        "text": "es tut mir Leid",
        "userDefined": false
      }
    ],
    "isTemplate": false,
    "count": 0,
    "updated": 0
  },
  {
    "id": "e4137cdd-cfbe-47af-a544-e86d35ab1915",
    "data": [
      {
        "text": "verzeih es mir",
        "userDefined": false
      }
    ],
    "isTemplate": false,
    "count": 0,
    "updated": 0
  },
  {
    "id": "fb32b4c5-872e-4708-85b0-a165899873a9",
    "data": [
      {
        "text": "es tut mir wirklich Leid",
        "userDefined": false
      }
    ],
    "isTemplate": false,
    "count": 0,
    "updated": 0
  }
]