[
  {
    "id": "3f5e1163-cc58-45fa-a8db-6809c230739e",
    "data": [
      {
        "text": "ich bin",
        "meta": "@sys.ignore",
        "userDefined": false
      },
      {
        "text": " sehr beschäftigt",
        "userDefined": false
      }
    ],
    "isTemplate": false,
    "count": 0,
    "updated": 0
  },
  {
    "id": "c81b454e-1b3f-429d-aad5-f050a2e348d1",
    "data": [
      {
        "text": "ich arbeite",
        "userDefined": false
      }
    ],
    "isTemplate": false,
    "count": 0,
    "updated": 0
  },
  {
    "id": "c1cff62b-6625-4e77-ab82-bc8f9c3c223a",
    "data": [
      {
        "text": "ich habe viel zu tun",
        "userDefined": false
      }
    ],
    "isTemplate": false,
    "count": 0,
    "updated": 0
  },
  {
    "id": "7626045e-cdde-47b4-8478-292f42eb4ec7",
    "data": [
      {
        "text": "ich bin so",
        "meta": "@sys.ignore",
        "userDefined": false
      },
      {
        "text": " beschäftigt",
        "userDefined": false
      }
    ],
    "isTemplate": false,
    "count": 0,
    "updated": 0
  },
  {
    "id": "b861520e-9528-4a9a-9049-64c2707c22fd",
    "data": [
      {
        "text": "wie beschäftigt bin ich",
        "userDefined": false
      }
    ],
    "isTemplate": false,
    "count": 0,
    "updated": 0
  },
  {
    "id": "8dbcef4c-be06-4351-b1e5-bf73f1a1fbf3",
    "data": [
      {
        "text": "es ist ",
        "userDefined": false
      },
      {
        "text": "gerade",
        "meta": "@sys.ignore",
        "userDefined": false
      },
      {
        "text": " ganz schön viel zu tun",
        "userDefined": false
      }
    ],
    "isTemplate": false,
    "count": 0,
    "updated": 0
  },
  {
    "id": "3d9cfdd0-8e5a-460a-9083-266b15fca1ac",
    "data": [
      {
        "text": "es ist ",
        "userDefined": false
      },
      {
        "text": "gerade",
        "meta": "@sys.ignore",
        "userDefined": false
      },
      {
        "text": " viel los",
        "userDefined": false
      }
    ],
    "isTemplate": false,
    "count": 0,
    "updated": 0
  },
  {
    "id": "dcf279cb-10d8-4359-9e86-b111622a56df",
    "data": [
      {
        "text": "ich habe einen arbeitsreichen ",
        "userDefined": false
      },
      {
        "text": "Tag",
        "meta": "@sys.ignore",
        "userDefined": false
      }
    ],
    "isTemplate": false,
    "count": 0,
    "updated": 0
  },
  {
    "id": "b34e4942-5eb1-4ccd-b02a-867f10b59715",
    "data": [
      {
        "text": "ich bin",
        "meta": "@sys.ignore",
        "userDefined": false
      },
      {
        "text": " beschäftigt",
        "userDefined": false
      }
    ],
    "isTemplate": false,
    "count": 0,
    "updated": 0
  },
  {
    "id": "5dc169d4-a595-4699-981d-25081129af01",
    "data": [
      {
        "text": "ich bin total beschäftigt",
        "userDefined": false
      }
    ],
    "isTemplate": false,
    "count": 0,
    "updated": 0
  }
]