[
  {
    "id": "397f35c9-3016-44e9-aecd-c500b5af5ef8",
    "data": [
      {
        "text": "ist mir egal",
        "userDefined": false
      }
    ],
    "isTemplate": false,
    "count": 0,
    "updated": 0
  },
  {
    "id": "b9801ace-42cb-41cf-a131-6b8b581f2510",
    "data": [
      {
        "text": "es ",
        "userDefined": false
      },
      {
        "text": "ist",
        "meta": "@sys.ignore",
        "userDefined": false
      },
      {
        "text": " mir ",
        "userDefined": false
      },
      {
        "text": "egal",
        "meta": "@sys.ignore",
        "userDefined": false
      }
    ],
    "isTemplate": false,
    "count": 0,
    "updated": 0
  },
  {
    "id": "adfe2a3f-715d-43b4-b6f4-03a070ae80f3",
    "data": [
      {
        "text": "es liegt mir nichts mehr daran",
        "userDefined": false
      }
    ],
    "isTemplate": false,
    "count": 0,
    "updated": 0
  },
  {
    "id": "650740cd-14e8-4843-9ad0-3360bc8e6a6c",
    "data": [
      {
        "text": "egal",
        "userDefined": false
      }
    ],
    "isTemplate": false,
    "count": 0,
    "updated": 0
  },
  {
    "id": "8d57cdfc-ada4-443d-94c3-68347343ca94",
    "data": [
      {
        "text": "das",
        "meta": "@sys.ignore",
        "userDefined": false
      },
      {
        "text": " interessiert mich nicht",
        "userDefined": false
      }
    ],
    "isTemplate": false,
    "count": 0,
    "updated": 0
  },
  {
    "id": "61760497-92e5-4b99-ba52-b227208f644b",
    "data": [
      {
        "text": "ist",
        "meta": "@sys.ignore",
        "userDefined": false
      },
      {
        "text": " uns egal",
        "userDefined": false
      }
    ],
    "isTemplate": false,
    "count": 0,
    "updated": 0
  },
  {
    "id": "0061accd-3efa-4a01-848d-9bfa4336b7e9",
    "data": [
      {
        "text": "mir ",
        "userDefined": false
      },
      {
        "text": "ist",
        "meta": "@sys.ignore",
        "userDefined": false
      },
      {
        "text": " ",
        "userDefined": false
      },
      {
        "text": "alles",
        "meta": "@sys.ignore",
        "userDefined": false
      },
      {
        "text": " ",
        "userDefined": false
      },
      {
        "text": "egal",
        "meta": "@sys.ignore",
        "userDefined": false
      }
    ],
    "isTemplate": false,
    "count": 0,
    "updated": 0
  },
  {
    "id": "6ceac4ac-165d-49d9-972e-d62a282bb838",
    "data": [
      {
        "text": "kein Interesse",
        "userDefined": false
      }
    ],
    "isTemplate": false,
    "count": 0,
    "updated": 0
  },
  {
    "id": "9afb6c5e-6f4f-4c77-85eb-6e033c3570fd",
    "data": [
      {
        "text": "das interessiert mich überhaupt nicht",
        "userDefined": false
      }
    ],
    "isTemplate": false,
    "count": 0,
    "updated": 0
  },
  {
    "id": "3addc353-6faf-4651-b34b-b16336f65857",
    "data": [
      {
        "text": "diese Dinge interessieren mich nicht",
        "userDefined": false
      }
    ],
    "isTemplate": false,
    "count": 0,
    "updated": 0
  }
]