{
  "id": "80114c7a-a9b3-48e4-ae98-0dd6bb5b902c",
  "name": "smalltalk.agent.talk_to_me",
  "auto": true,
  "contexts": [],
  "responses": [
    {
      "resetContexts": false,
      "action": "smalltalk.agent.talk_to_me",
      "affectedContexts": [],
      "parameters": [],
      "messages": [
        {
          "type": 0,
          "lang": "de",
          "speech": [
            "Sicher. Lass uns reden!",
            "Gern geschehen. Lass uns schreiben."
          ]
        }
      ],
      "defaultResponsePlatforms": {},
      "speech": []
    }
  ],
  "priority": 500000,
  "webhookUsed": false,
  "webhookForSlotFilling": false,
  "lastUpdate": 1550671823,
  "fallbackIntent": false,
  "events": []
}