[
  {
    "value": "2,3 GHz",
    "synonyms": [
      "2,3 GHz"
    ]
  },
  {
    "value": "2,5 GHz",
    "synonyms": [
      "2,5 GHz"
    ]
  },
  {
    "value": "2,7 GHz",
    "synonyms": [
      "2,7 GHz"
    ]
  },
  {
    "value": "1,3 GHz",
    "synonyms": [
      "1,3 GHz"
    ]
  },
  {
    "value": "1,2 GHz",
    "synonyms": [
      "1,2 GHz"
    ]
  },
  {
    "value": "2,2 GHz",
    "synonyms": [
      "2,2 GHz"
    ]
  },
  {
    "value": "1,4 GHz",
    "synonyms": [
      "1,4 GHz"
    ]
  },
  {
    "value": "1,6 GHz",
    "synonyms": [
      "1,6 GHz"
    ]
  },
  {
    "value": "1,8 GHz",
    "synonyms": [
      "1,8 GHz"
    ]
  },
  {
    "value": "2,6 GHz",
    "synonyms": [
      "2,6 GHz"
    ]
  },
  {
    "value": "2,9 GHz",
    "synonyms": [
      "2,9 GHz"
    ]
  },
  {
    "value": "3,0 GHz",
    "synonyms": [
      "3,0 GHz"
    ]
  },
  {
    "value": "3,2 GHz",
    "synonyms": [
      "3,2 GHz"
    ]
  },
  {
    "value": "3,4 GHz",
    "synonyms": [
      "3,4 GHz"
    ]
  },
  {
    "value": "3,6 GHz",
    "synonyms": [
      "3,6 GHz"
    ]
  },
  {
    "value": "3,5 GHz",
    "synonyms": [
      "3,5 GHz"
    ]
  },
  {
    "value": "3,8 GHz",
    "synonyms": [
      "3,8 GHz"
    ]
  },
  {
    "value": "4,2 GHz",
    "synonyms": [
      "4,2 GHz"
    ]
  }
]